%!PS-Adobe-3.0 EPSF-3.0
%%Creator: (MATLAB, The Mathworks, Inc. Version 9.3.0.713579 \(R2017b\). Operating System: Windows 10)
%%Title: (C:/Users/Yicheng Huang/Documents/MATLAB/Numerical Wave Stuff/Wave finding from ship trace/Checkrelation.eps)
%%CreationDate: 2018-04-03T16:41:41
%%Pages: (atend)
%%BoundingBox: 0 0 1254 452
%%LanguageLevel: 3
%%EndComments
%%BeginProlog
%%BeginResource: procset (Apache XML Graphics Std ProcSet) 1.2 0
%%Version: 1.2 0
%%Copyright: (Copyright 2001-2003,2010 The Apache Software Foundation. License terms: http://www.apache.org/licenses/LICENSE-2.0)
/bd{bind def}bind def
/ld{load def}bd
/GR/grestore ld
/GS/gsave ld
/RM/rmoveto ld
/C/curveto ld
/t/show ld
/L/lineto ld
/ML/setmiterlimit ld
/CT/concat ld
/f/fill ld
/N/newpath ld
/S/stroke ld
/CC/setcmykcolor ld
/A/ashow ld
/cp/closepath ld
/RC/setrgbcolor ld
/LJ/setlinejoin ld
/GC/setgray ld
/LW/setlinewidth ld
/M/moveto ld
/re {4 2 roll M
1 index 0 rlineto
0 exch rlineto
neg 0 rlineto
cp } bd
/_ctm matrix def
/_tm matrix def
/BT { _ctm currentmatrix pop matrix _tm copy pop 0 0 moveto } bd
/ET { _ctm setmatrix } bd
/iTm { _ctm setmatrix _tm concat } bd
/Tm { _tm astore pop iTm 0 0 moveto } bd
/ux 0.0 def
/uy 0.0 def
/F {
  /Tp exch def
  /Tf exch def
  Tf findfont Tp scalefont setfont
  /cf Tf def  /cs Tp def
} bd
/ULS {currentpoint /uy exch def /ux exch def} bd
/ULE {
  /Tcx currentpoint pop def
  gsave
  newpath
  cf findfont cs scalefont dup
  /FontMatrix get 0 get /Ts exch def /FontInfo get dup
  /UnderlinePosition get Ts mul /To exch def
  /UnderlineThickness get Ts mul /Tt exch def
  ux uy To add moveto  Tcx uy To add lineto
  Tt setlinewidth stroke
  grestore
} bd
/OLE {
  /Tcx currentpoint pop def
  gsave
  newpath
  cf findfont cs scalefont dup
  /FontMatrix get 0 get /Ts exch def /FontInfo get dup
  /UnderlinePosition get Ts mul /To exch def
  /UnderlineThickness get Ts mul /Tt exch def
  ux uy To add cs add moveto Tcx uy To add cs add lineto
  Tt setlinewidth stroke
  grestore
} bd
/SOE {
  /Tcx currentpoint pop def
  gsave
  newpath
  cf findfont cs scalefont dup
  /FontMatrix get 0 get /Ts exch def /FontInfo get dup
  /UnderlinePosition get Ts mul /To exch def
  /UnderlineThickness get Ts mul /Tt exch def
  ux uy To add cs 10 mul 26 idiv add moveto Tcx uy To add cs 10 mul 26 idiv add lineto
  Tt setlinewidth stroke
  grestore
} bd
/QT {
/Y22 exch store
/X22 exch store
/Y21 exch store
/X21 exch store
currentpoint
/Y21 load 2 mul add 3 div exch
/X21 load 2 mul add 3 div exch
/X21 load 2 mul /X22 load add 3 div
/Y21 load 2 mul /Y22 load add 3 div
/X22 load /Y22 load curveto
} bd
/SSPD {
dup length /d exch dict def
{
/v exch def
/k exch def
currentpagedevice k known {
/cpdv currentpagedevice k get def
v cpdv ne {
/upd false def
/nullv v type /nulltype eq def
/nullcpdv cpdv type /nulltype eq def
nullv nullcpdv or
{
/upd true def
} {
/sametype v type cpdv type eq def
sametype {
v type /arraytype eq {
/vlen v length def
/cpdvlen cpdv length def
vlen cpdvlen eq {
0 1 vlen 1 sub {
/i exch def
/obj v i get def
/cpdobj cpdv i get def
obj cpdobj ne {
/upd true def
exit
} if
} for
} {
/upd true def
} ifelse
} {
v type /dicttype eq {
v {
/dv exch def
/dk exch def
/cpddv cpdv dk get def
dv cpddv ne {
/upd true def
exit
} if
} forall
} {
/upd true def
} ifelse
} ifelse
} if
} ifelse
upd true eq {
d k v put
} if
} if
} if
} forall
d length 0 gt {
d setpagedevice
} if
} bd
/RE { % /NewFontName [NewEncodingArray] /FontName RE -
  findfont dup length dict begin
  {
    1 index /FID ne
    {def} {pop pop} ifelse
  } forall
  /Encoding exch def
  /FontName 1 index def
  currentdict definefont pop
  end
} bind def
%%EndResource
%%BeginResource: procset (Apache XML Graphics EPS ProcSet) 1.0 0
%%Version: 1.0 0
%%Copyright: (Copyright 2002-2003 The Apache Software Foundation. License terms: http://www.apache.org/licenses/LICENSE-2.0)
/BeginEPSF { %def
/b4_Inc_state save def         % Save state for cleanup
/dict_count countdictstack def % Count objects on dict stack
/op_count count 1 sub def      % Count objects on operand stack
userdict begin                 % Push userdict on dict stack
/showpage { } def              % Redefine showpage, { } = null proc
0 setgray 0 setlinecap         % Prepare graphics state
1 setlinewidth 0 setlinejoin
10 setmiterlimit [ ] 0 setdash newpath
/languagelevel where           % If level not equal to 1 then
{pop languagelevel             % set strokeadjust and
1 ne                           % overprint to their defaults.
{false setstrokeadjust false setoverprint
} if
} if
} bd
/EndEPSF { %def
count op_count sub {pop} repeat            % Clean up stacks
countdictstack dict_count sub {end} repeat
b4_Inc_state restore
} bd
%%EndResource
%FOPBeginFontDict
%%IncludeResource: font Courier-Oblique
%%IncludeResource: font Courier-BoldOblique
%%IncludeResource: font Courier-Bold
%%IncludeResource: font ZapfDingbats
%%IncludeResource: font Symbol
%%IncludeResource: font Helvetica
%%IncludeResource: font Helvetica-Oblique
%%IncludeResource: font Helvetica-Bold
%%IncludeResource: font Helvetica-BoldOblique
%%IncludeResource: font Times-Roman
%%IncludeResource: font Times-Italic
%%IncludeResource: font Times-Bold
%%IncludeResource: font Times-BoldItalic
%%IncludeResource: font Courier
%FOPEndFontDict
%%BeginResource: encoding WinAnsiEncoding
/WinAnsiEncoding [
/.notdef /.notdef /.notdef /.notdef /.notdef
/.notdef /.notdef /.notdef /.notdef /.notdef
/.notdef /.notdef /.notdef /.notdef /.notdef
/.notdef /.notdef /.notdef /.notdef /.notdef
/.notdef /.notdef /.notdef /.notdef /.notdef
/.notdef /.notdef /.notdef /.notdef /.notdef
/.notdef /.notdef /space /exclam /quotedbl
/numbersign /dollar /percent /ampersand /quotesingle
/parenleft /parenright /asterisk /plus /comma
/hyphen /period /slash /zero /one
/two /three /four /five /six
/seven /eight /nine /colon /semicolon
/less /equal /greater /question /at
/A /B /C /D /E
/F /G /H /I /J
/K /L /M /N /O
/P /Q /R /S /T
/U /V /W /X /Y
/Z /bracketleft /backslash /bracketright /asciicircum
/underscore /quoteleft /a /b /c
/d /e /f /g /h
/i /j /k /l /m
/n /o /p /q /r
/s /t /u /v /w
/x /y /z /braceleft /bar
/braceright /asciitilde /bullet /Euro /bullet
/quotesinglbase /florin /quotedblbase /ellipsis /dagger
/daggerdbl /circumflex /perthousand /Scaron /guilsinglleft
/OE /bullet /Zcaron /bullet /bullet
/quoteleft /quoteright /quotedblleft /quotedblright /bullet
/endash /emdash /asciitilde /trademark /scaron
/guilsinglright /oe /bullet /zcaron /Ydieresis
/space /exclamdown /cent /sterling /currency
/yen /brokenbar /section /dieresis /copyright
/ordfeminine /guillemotleft /logicalnot /sfthyphen /registered
/macron /degree /plusminus /twosuperior /threesuperior
/acute /mu /paragraph /middot /cedilla
/onesuperior /ordmasculine /guillemotright /onequarter /onehalf
/threequarters /questiondown /Agrave /Aacute /Acircumflex
/Atilde /Adieresis /Aring /AE /Ccedilla
/Egrave /Eacute /Ecircumflex /Edieresis /Igrave
/Iacute /Icircumflex /Idieresis /Eth /Ntilde
/Ograve /Oacute /Ocircumflex /Otilde /Odieresis
/multiply /Oslash /Ugrave /Uacute /Ucircumflex
/Udieresis /Yacute /Thorn /germandbls /agrave
/aacute /acircumflex /atilde /adieresis /aring
/ae /ccedilla /egrave /eacute /ecircumflex
/edieresis /igrave /iacute /icircumflex /idieresis
/eth /ntilde /ograve /oacute /ocircumflex
/otilde /odieresis /divide /oslash /ugrave
/uacute /ucircumflex /udieresis /yacute /thorn
/ydieresis
] def
%%EndResource
%FOPBeginFontReencode
/Courier-Oblique findfont
dup length dict begin
  {1 index /FID ne {def} {pop pop} ifelse} forall
  /Encoding WinAnsiEncoding def
  currentdict
end
/Courier-Oblique exch definefont pop
/Courier-BoldOblique findfont
dup length dict begin
  {1 index /FID ne {def} {pop pop} ifelse} forall
  /Encoding WinAnsiEncoding def
  currentdict
end
/Courier-BoldOblique exch definefont pop
/Courier-Bold findfont
dup length dict begin
  {1 index /FID ne {def} {pop pop} ifelse} forall
  /Encoding WinAnsiEncoding def
  currentdict
end
/Courier-Bold exch definefont pop
/Helvetica findfont
dup length dict begin
  {1 index /FID ne {def} {pop pop} ifelse} forall
  /Encoding WinAnsiEncoding def
  currentdict
end
/Helvetica exch definefont pop
/Helvetica-Oblique findfont
dup length dict begin
  {1 index /FID ne {def} {pop pop} ifelse} forall
  /Encoding WinAnsiEncoding def
  currentdict
end
/Helvetica-Oblique exch definefont pop
/Helvetica-Bold findfont
dup length dict begin
  {1 index /FID ne {def} {pop pop} ifelse} forall
  /Encoding WinAnsiEncoding def
  currentdict
end
/Helvetica-Bold exch definefont pop
/Helvetica-BoldOblique findfont
dup length dict begin
  {1 index /FID ne {def} {pop pop} ifelse} forall
  /Encoding WinAnsiEncoding def
  currentdict
end
/Helvetica-BoldOblique exch definefont pop
/Times-Roman findfont
dup length dict begin
  {1 index /FID ne {def} {pop pop} ifelse} forall
  /Encoding WinAnsiEncoding def
  currentdict
end
/Times-Roman exch definefont pop
/Times-Italic findfont
dup length dict begin
  {1 index /FID ne {def} {pop pop} ifelse} forall
  /Encoding WinAnsiEncoding def
  currentdict
end
/Times-Italic exch definefont pop
/Times-Bold findfont
dup length dict begin
  {1 index /FID ne {def} {pop pop} ifelse} forall
  /Encoding WinAnsiEncoding def
  currentdict
end
/Times-Bold exch definefont pop
/Times-BoldItalic findfont
dup length dict begin
  {1 index /FID ne {def} {pop pop} ifelse} forall
  /Encoding WinAnsiEncoding def
  currentdict
end
/Times-BoldItalic exch definefont pop
/Courier findfont
dup length dict begin
  {1 index /FID ne {def} {pop pop} ifelse} forall
  /Encoding WinAnsiEncoding def
  currentdict
end
/Courier exch definefont pop
%FOPEndFontReencode
%%EndProlog
%%Page: 1 1
%%PageBoundingBox: 0 0 1254 452
%%BeginPageSetup
[1 0 0 -1 0 452] CT
%%EndPageSetup
GS
[0.97969 0 0 0.98102 0 -0.25] CT
1 GC
N
0 0 1280 461 re
f
GR
GS
[0.97969 0 0 0.98102 0 -0.25] CT
1 GC
N
0 0 1280 461 re
f
GR
GS
[0.97969 0 0 0.98102 0 -0.25] CT
1 GC
N
166 402 M
548 402 L
548 35 L
166 35 L
cp
f
GR
GS
[0.97969 0 0 0.98102 0 -0.25] CT
0.149 GC
2 setlinecap
1 LJ
0.51 LW
N
166 402 M
548 402 L
S
GR
GS
[0.97969 0 0 0.98102 0 -0.25] CT
0.149 GC
2 setlinecap
1 LJ
0.51 LW
N
166 35 M
548 35 L
S
GR
GS
[0.97969 0 0 0.98102 0 -0.25] CT
0.149 GC
2 setlinecap
1 LJ
0.51 LW
N
189.875 402 M
189.875 398.18 L
S
GR
GS
[0.97969 0 0 0.98102 0 -0.25] CT
0.149 GC
2 setlinecap
1 LJ
0.51 LW
N
249.563 402 M
249.563 398.18 L
S
GR
GS
[0.97969 0 0 0.98102 0 -0.25] CT
0.149 GC
2 setlinecap
1 LJ
0.51 LW
N
309.25 402 M
309.25 398.18 L
S
GR
GS
[0.97969 0 0 0.98102 0 -0.25] CT
0.149 GC
2 setlinecap
1 LJ
0.51 LW
N
368.938 402 M
368.938 398.18 L
S
GR
GS
[0.97969 0 0 0.98102 0 -0.25] CT
0.149 GC
2 setlinecap
1 LJ
0.51 LW
N
428.625 402 M
428.625 398.18 L
S
GR
GS
[0.97969 0 0 0.98102 0 -0.25] CT
0.149 GC
2 setlinecap
1 LJ
0.51 LW
N
488.313 402 M
488.313 398.18 L
S
GR
GS
[0.97969 0 0 0.98102 0 -0.25] CT
0.149 GC
2 setlinecap
1 LJ
0.51 LW
N
548 402 M
548 398.18 L
S
GR
GS
[0.97969 0 0 0.98102 0 -0.25] CT
0.149 GC
2 setlinecap
1 LJ
0.51 LW
N
189.875 35 M
189.875 38.82 L
S
GR
GS
[0.97969 0 0 0.98102 0 -0.25] CT
0.149 GC
2 setlinecap
1 LJ
0.51 LW
N
249.563 35 M
249.563 38.82 L
S
GR
GS
[0.97969 0 0 0.98102 0 -0.25] CT
0.149 GC
2 setlinecap
1 LJ
0.51 LW
N
309.25 35 M
309.25 38.82 L
S
GR
GS
[0.97969 0 0 0.98102 0 -0.25] CT
0.149 GC
2 setlinecap
1 LJ
0.51 LW
N
368.938 35 M
368.938 38.82 L
S
GR
GS
[0.97969 0 0 0.98102 0 -0.25] CT
0.149 GC
2 setlinecap
1 LJ
0.51 LW
N
428.625 35 M
428.625 38.82 L
S
GR
GS
[0.97969 0 0 0.98102 0 -0.25] CT
0.149 GC
2 setlinecap
1 LJ
0.51 LW
N
488.313 35 M
488.313 38.82 L
S
GR
GS
[0.97969 0 0 0.98102 0 -0.25] CT
0.149 GC
2 setlinecap
1 LJ
0.51 LW
N
548 35 M
548 38.82 L
S
GR
GS
[0.97969 0 0 0.98102 186.01816 400.74134] CT
0.149 GC
/Times-Roman 20.415 F
GS
[1 0 0 1 0 0] CT
-28.5 19 moveto 
1 -1 scale
(4.5101) t 
GR
GR
GS
[0.97969 0 0 0.98102 302.96836 400.74134] CT
0.149 GC
/Times-Roman 20.415 F
GS
[1 0 0 1 0 0] CT
-28.5 19 moveto 
1 -1 scale
(4.5102) t 
GR
GR
GS
[0.97969 0 0 0.98102 419.91855 400.74134] CT
0.149 GC
/Times-Roman 20.415 F
GS
[1 0 0 1 0 0] CT
-28.5 19 moveto 
1 -1 scale
(4.5103) t 
GR
GR
GS
[0.97969 0 0 0.98102 536.86875 400.74134] CT
0.149 GC
/Times-Roman 20.415 F
GS
[1 0 0 1 0 0] CT
-28.5 19 moveto 
1 -1 scale
(4.5104) t 
GR
GR
GS
[0.97969 0 0 0.98102 349.74862 424.61283] CT
0.149 GC
/Times-Roman 22.456 F
GS
[1 0 0 1 0 0] CT
-102.5 21 moveto 
1 -1 scale
(UTM y coordinate \(m\)) t 
GR
GR
GS
[0.97969 0 0 0.98102 491.80313 449.05694] CT
0.149 GC
N
2.938 -0.578 M
2.938 -0.734 3.031 -0.859 QT
7.203 -5 L
3.031 -9.156 L
2.938 -9.266 2.938 -9.422 QT
2.938 -9.578 3.055 -9.703 QT
3.172 -9.828 3.344 -9.828 QT
3.484 -9.828 3.641 -9.703 QT
7.781 -5.563 L
11.906 -9.703 L
12.078 -9.828 12.203 -9.828 QT
12.359 -9.828 12.477 -9.711 QT
12.594 -9.594 12.594 -9.422 QT
12.594 -9.266 12.5 -9.156 QT
8.344 -5 L
12.5 -0.859 L
12.594 -0.734 12.594 -0.578 QT
12.594 -0.406 12.477 -0.289 QT
12.359 -0.172 12.203 -0.172 QT
12.047 -0.172 11.906 -0.328 QT
7.781 -4.438 L
3.641 -0.328 L
3.5 -0.172 3.344 -0.172 QT
3.172 -0.172 3.055 -0.305 QT
2.938 -0.438 2.938 -0.578 QT
cp
f
GR
GS
[0.97969 0 0 0.98102 507.47813 449.05694] CT
0.149 GC
/Times-Roman 20.415 F
GS
[1 0 0 1 0 0] CT
0 0 moveto 
1 -1 scale
(10) t 
GR
GR
GS
[0.97969 0 0 0.98102 528.05156 439.24675] CT
0.149 GC
/Times-Roman 16.332 F
GS
[1 0 0 1 0 0] CT
0 0 moveto 
1 -1 scale
(6) t 
GR
GR
GS
[0.97969 0 0 0.98102 0 -0.25] CT
2 setlinecap
1 LJ
0.51 LW
N
166 402 M
166 35 L
S
GR
GS
[0.97969 0 0 0.98102 0 -0.25] CT
2 setlinecap
1 LJ
0.51 LW
N
166 402 M
169.82 402 L
S
GR
GS
[0.97969 0 0 0.98102 0 -0.25] CT
2 setlinecap
1 LJ
0.51 LW
N
166 349.571 M
169.82 349.571 L
S
GR
GS
[0.97969 0 0 0.98102 0 -0.25] CT
2 setlinecap
1 LJ
0.51 LW
N
166 297.143 M
169.82 297.143 L
S
GR
GS
[0.97969 0 0 0.98102 0 -0.25] CT
2 setlinecap
1 LJ
0.51 LW
N
166 244.714 M
169.82 244.714 L
S
GR
GS
[0.97969 0 0 0.98102 0 -0.25] CT
2 setlinecap
1 LJ
0.51 LW
N
166 192.286 M
169.82 192.286 L
S
GR
GS
[0.97969 0 0 0.98102 0 -0.25] CT
2 setlinecap
1 LJ
0.51 LW
N
166 139.857 M
169.82 139.857 L
S
GR
GS
[0.97969 0 0 0.98102 0 -0.25] CT
2 setlinecap
1 LJ
0.51 LW
N
166 87.429 M
169.82 87.429 L
S
GR
GS
[0.97969 0 0 0.98102 0 -0.25] CT
2 setlinecap
1 LJ
0.51 LW
N
166 35 M
169.82 35 L
S
GR
GS
[0.97969 0 0 0.98102 156.01562 394.11985] CT
/Times-Roman 20.415 F
GS
[1 0 0 1 0 0] CT
-11 7.5 moveto 
1 -1 scale
(0) t 
GR
GR
GS
[0.97969 0 0 0.98102 156.01562 342.68638] CT
/Times-Roman 20.415 F
GS
[1 0 0 1 0 0] CT
-36 7.5 moveto 
1 -1 scale
(0.02) t 
GR
GR
GS
[0.97969 0 0 0.98102 156.01562 291.25294] CT
/Times-Roman 20.415 F
GS
[1 0 0 1 0 0] CT
-36 7.5 moveto 
1 -1 scale
(0.04) t 
GR
GR
GS
[0.97969 0 0 0.98102 156.01562 239.81949] CT
/Times-Roman 20.415 F
GS
[1 0 0 1 0 0] CT
-36 7.5 moveto 
1 -1 scale
(0.06) t 
GR
GR
GS
[0.97969 0 0 0.98102 156.01562 188.38603] CT
/Times-Roman 20.415 F
GS
[1 0 0 1 0 0] CT
-36 7.5 moveto 
1 -1 scale
(0.08) t 
GR
GR
GS
[0.97969 0 0 0.98102 156.01562 136.95258] CT
/Times-Roman 20.415 F
GS
[1 0 0 1 0 0] CT
-26 7.5 moveto 
1 -1 scale
(0.1) t 
GR
GR
GS
[0.97969 0 0 0.98102 156.01562 85.51913] CT
/Times-Roman 20.415 F
GS
[1 0 0 1 0 0] CT
-36 7.5 moveto 
1 -1 scale
(0.12) t 
GR
GR
GS
[0.97969 0 0 0.98102 156.01562 34.08568] CT
/Times-Roman 20.415 F
GS
[1 0 0 1 0 0] CT
-36 7.5 moveto 
1 -1 scale
(0.14) t 
GR
GR
GS
[0 -0.98102 0.97969 0 116.82812 214.1026] CT
/Times-Roman 22.456 F
GS
[1 0 0 1 0 0] CT
-114.5 -5 moveto 
1 -1 scale
(Observed frequency \(Hz\)) t 
GR
GR
GS
[0.97969 0 0 0.98102 0 -0.25] CT
0.851 0.325 0.098 RC
2 setlinecap
1 LJ
0.51 LW
N
548 402 M
548 35 L
S
GR
GS
[0.97969 0 0 0.98102 0 -0.25] CT
0.851 0.325 0.098 RC
2 setlinecap
1 LJ
0.51 LW
N
548 402 M
544.18 402 L
S
GR
GS
[0.97969 0 0 0.98102 0 -0.25] CT
0.851 0.325 0.098 RC
2 setlinecap
1 LJ
0.51 LW
N
548 340.833 M
544.18 340.833 L
S
GR
GS
[0.97969 0 0 0.98102 0 -0.25] CT
0.851 0.325 0.098 RC
2 setlinecap
1 LJ
0.51 LW
N
548 279.667 M
544.18 279.667 L
S
GR
GS
[0.97969 0 0 0.98102 0 -0.25] CT
0.851 0.325 0.098 RC
2 setlinecap
1 LJ
0.51 LW
N
548 218.5 M
544.18 218.5 L
S
GR
GS
[0.97969 0 0 0.98102 0 -0.25] CT
0.851 0.325 0.098 RC
2 setlinecap
1 LJ
0.51 LW
N
548 157.333 M
544.18 157.333 L
S
GR
GS
[0.97969 0 0 0.98102 0 -0.25] CT
0.851 0.325 0.098 RC
2 setlinecap
1 LJ
0.51 LW
N
548 96.167 M
544.18 96.167 L
S
GR
GS
[0.97969 0 0 0.98102 0 -0.25] CT
0.851 0.325 0.098 RC
2 setlinecap
1 LJ
0.51 LW
N
548 35 M
544.18 35 L
S
GR
GS
[0.97969 0 0 0.98102 543.48122 394.11985] CT
0.851 0.325 0.098 RC
/Times-Roman 20.415 F
GS
[1 0 0 1 0 0] CT
0 7.5 moveto 
1 -1 scale
(-4) t 
GR
GR
GS
[0.97969 0 0 0.98102 543.48122 334.11416] CT
0.851 0.325 0.098 RC
/Times-Roman 20.415 F
GS
[1 0 0 1 0 0] CT
0 7.5 moveto 
1 -1 scale
(-3.5) t 
GR
GR
GS
[0.97969 0 0 0.98102 543.48122 274.10845] CT
0.851 0.325 0.098 RC
/Times-Roman 20.415 F
GS
[1 0 0 1 0 0] CT
0 7.5 moveto 
1 -1 scale
(-3) t 
GR
GR
GS
[0.97969 0 0 0.98102 543.48122 214.10277] CT
0.851 0.325 0.098 RC
/Times-Roman 20.415 F
GS
[1 0 0 1 0 0] CT
0 7.5 moveto 
1 -1 scale
(-2.5) t 
GR
GR
GS
[0.97969 0 0 0.98102 543.48122 154.09707] CT
0.851 0.325 0.098 RC
/Times-Roman 20.415 F
GS
[1 0 0 1 0 0] CT
0 7.5 moveto 
1 -1 scale
(-2) t 
GR
GR
GS
[0.97969 0 0 0.98102 543.48122 94.09138] CT
0.851 0.325 0.098 RC
/Times-Roman 20.415 F
GS
[1 0 0 1 0 0] CT
0 7.5 moveto 
1 -1 scale
(-1.5) t 
GR
GR
GS
[0.97969 0 0 0.98102 543.48122 34.08568] CT
0.851 0.325 0.098 RC
/Times-Roman 20.415 F
GS
[1 0 0 1 0 0] CT
0 7.5 moveto 
1 -1 scale
(-1) t 
GR
GR
GS
[0 -0.98102 0.97969 0 579.72966 214.1026] CT
0.851 0.325 0.098 RC
/Times-Roman 22.456 F
GS
[1 0 0 1 0 0] CT
-72 21 moveto 
1 -1 scale
(Bathymetry \(m\)) t 
GR
GR
GS
[0.97969 0 0 0.98102 0 -0.25] CT
0 0.447 0.741 RC
1 LJ
2.041 LW
N
519.538 362.801 M
485.693 225.957 L
462.574 165.916 L
430.108 235.561 L
402.553 157.333 L
377.885 140.829 L
361.237 102.324 L
331.677 92.328 L
312.773 70.585 L
257.226 119.306 L
243.483 125.634 L
186.092 89.442 L
S
GR
GS
[0.97969 0 0 0.98102 508.98497 355.66513] CT
0 0.447 0.741 RC
10.0 ML
2.041 LW
N
3.062 0 M
3.062 -1.691 1.691 -3.062 0 -3.062 C
-1.691 -3.062 -3.062 -1.691 -3.062 0 C
-3.062 1.691 -1.691 3.062 0 3.062 C
1.691 3.062 3.062 1.691 3.062 0 C
S
GR
GS
[0.97969 0 0 0.98102 475.82759 221.41826] CT
0 0.447 0.741 RC
10.0 ML
2.041 LW
N
3.062 0 M
3.062 -1.691 1.691 -3.062 0 -3.062 C
-1.691 -3.062 -3.062 -1.691 -3.062 0 C
-3.062 1.691 -1.691 3.062 0 3.062 C
1.691 3.062 3.062 1.691 3.062 0 C
S
GR
GS
[0.97969 0 0 0.98102 453.17806 162.51655] CT
0 0.447 0.741 RC
10.0 ML
2.041 LW
N
3.062 0 M
3.062 -1.691 1.691 -3.062 0 -3.062 C
-1.691 -3.062 -3.062 -1.691 -3.062 0 C
-3.062 1.691 -1.691 3.062 0 3.062 C
1.691 3.062 3.062 1.691 3.062 0 C
S
GR
GS
[0.97969 0 0 0.98102 421.37131 230.8395] CT
0 0.447 0.741 RC
10.0 ML
2.041 LW
N
3.062 0 M
3.062 -1.691 1.691 -3.062 0 -3.062 C
-1.691 -3.062 -3.062 -1.691 -3.062 0 C
-3.062 1.691 -1.691 3.062 0 3.062 C
1.691 3.062 3.062 1.691 3.062 0 C
S
GR
GS
[0.97969 0 0 0.98102 394.37639 154.09647] CT
0 0.447 0.741 RC
10.0 ML
2.041 LW
N
3.062 0 M
3.062 -1.691 1.691 -3.062 0 -3.062 C
-1.691 -3.062 -3.062 -1.691 -3.062 0 C
-3.062 1.691 -1.691 3.062 0 3.062 C
1.691 3.062 3.062 1.691 3.062 0 C
S
GR
GS
[0.97969 0 0 0.98102 370.20889 137.90559] CT
0 0.447 0.741 RC
10.0 ML
2.041 LW
N
3.062 0 M
3.062 -1.691 1.691 -3.062 0 -3.062 C
-1.691 -3.062 -3.062 -1.691 -3.062 0 C
-3.062 1.691 -1.691 3.062 0 3.062 C
1.691 3.062 3.062 1.691 3.062 0 C
S
GR
GS
[0.97969 0 0 0.98102 353.89961 100.13184] CT
0 0.447 0.741 RC
10.0 ML
2.041 LW
N
3.062 0 M
3.062 -1.691 1.691 -3.062 0 -3.062 C
-1.691 -3.062 -3.062 -1.691 -3.062 0 C
-3.062 1.691 -1.691 3.062 0 3.062 C
1.691 3.062 3.062 1.691 3.062 0 C
S
GR
GS
[0.97969 0 0 0.98102 324.93951 90.32604] CT
0 0.447 0.741 RC
10.0 ML
2.041 LW
N
3.062 0 M
3.062 -1.691 1.691 -3.062 0 -3.062 C
-1.691 -3.062 -3.062 -1.691 -3.062 0 C
-3.062 1.691 -1.691 3.062 0 3.062 C
1.691 3.062 3.062 1.691 3.062 0 C
S
GR
GS
[0.97969 0 0 0.98102 306.42002 68.9952] CT
0 0.447 0.741 RC
10.0 ML
2.041 LW
N
3.062 0 M
3.062 -1.691 1.691 -3.062 0 -3.062 C
-1.691 -3.062 -3.062 -1.691 -3.062 0 C
-3.062 1.691 -1.691 3.062 0 3.062 C
1.691 3.062 3.062 1.691 3.062 0 C
S
GR
GS
[0.97969 0 0 0.98102 252.00153 116.79187] CT
0 0.447 0.741 RC
10.0 ML
2.041 LW
N
3.062 0 M
3.062 -1.691 1.691 -3.062 0 -3.062 C
-1.691 -3.062 -3.062 -1.691 -3.062 0 C
-3.062 1.691 -1.691 3.062 0 3.062 C
1.691 3.062 3.062 1.691 3.062 0 C
S
GR
GS
[0.97969 0 0 0.98102 238.53766 122.9995] CT
0 0.447 0.741 RC
10.0 ML
2.041 LW
N
3.062 0 M
3.062 -1.691 1.691 -3.062 0 -3.062 C
-1.691 -3.062 -3.062 -1.691 -3.062 0 C
-3.062 1.691 -1.691 3.062 0 3.062 C
1.691 3.062 3.062 1.691 3.062 0 C
S
GR
GS
[0.97969 0 0 0.98102 182.31218 87.49457] CT
0 0.447 0.741 RC
10.0 ML
2.041 LW
N
3.062 0 M
3.062 -1.691 1.691 -3.062 0 -3.062 C
-1.691 -3.062 -3.062 -1.691 -3.062 0 C
-3.062 1.691 -1.691 3.062 0 3.062 C
1.691 3.062 3.062 1.691 3.062 0 C
S
GR
GS
[0.97969 0 0 0.98102 0 -0.25] CT
0.851 0.325 0.098 RC
1 LJ
2.041 LW
N
519.538 300.648 M
485.693 300.181 L
462.574 379.479 L
430.108 165.477 L
402.553 283.95 L
377.885 208.411 L
361.237 189.076 L
331.677 186.422 L
312.773 172.978 L
257.226 141.519 L
243.483 128.718 L
186.092 91.262 L
S
GR
GS
[0.97969 0 0 0.98102 508.98497 294.69193] CT
0.851 0.325 0.098 RC
10.0 ML
2.041 LW
N
3.062 0 M
3.062 -1.691 1.691 -3.062 0 -3.062 C
-1.691 -3.062 -3.062 -1.691 -3.062 0 C
-3.062 1.691 -1.691 3.062 0 3.062 C
1.691 3.062 3.062 1.691 3.062 0 C
S
GR
GS
[0.97969 0 0 0.98102 475.82759 294.23345] CT
0.851 0.325 0.098 RC
10.0 ML
2.041 LW
N
3.062 0 M
3.062 -1.691 1.691 -3.062 0 -3.062 C
-1.691 -3.062 -3.062 -1.691 -3.062 0 C
-3.062 1.691 -1.691 3.062 0 3.062 C
1.691 3.062 3.062 1.691 3.062 0 C
S
GR
GS
[0.97969 0 0 0.98102 453.17806 372.02649] CT
0.851 0.325 0.098 RC
10.0 ML
2.041 LW
N
3.062 0 M
3.062 -1.691 1.691 -3.062 0 -3.062 C
-1.691 -3.062 -3.062 -1.691 -3.062 0 C
-3.062 1.691 -1.691 3.062 0 3.062 C
1.691 3.062 3.062 1.691 3.062 0 C
S
GR
GS
[0.97969 0 0 0.98102 421.37131 162.08614] CT
0.851 0.325 0.098 RC
10.0 ML
2.041 LW
N
3.062 0 M
3.062 -1.691 1.691 -3.062 0 -3.062 C
-1.691 -3.062 -3.062 -1.691 -3.062 0 C
-3.062 1.691 -1.691 3.062 0 3.062 C
1.691 3.062 3.062 1.691 3.062 0 C
S
GR
GS
[0.97969 0 0 0.98102 394.37639 278.31027] CT
0.851 0.325 0.098 RC
10.0 ML
2.041 LW
N
3.062 0 M
3.062 -1.691 1.691 -3.062 0 -3.062 C
-1.691 -3.062 -3.062 -1.691 -3.062 0 C
-3.062 1.691 -1.691 3.062 0 3.062 C
1.691 3.062 3.062 1.691 3.062 0 C
S
GR
GS
[0.97969 0 0 0.98102 370.20889 204.20567] CT
0.851 0.325 0.098 RC
10.0 ML
2.041 LW
N
3.062 0 M
3.062 -1.691 1.691 -3.062 0 -3.062 C
-1.691 -3.062 -3.062 -1.691 -3.062 0 C
-3.062 1.691 -1.691 3.062 0 3.062 C
1.691 3.062 3.062 1.691 3.062 0 C
S
GR
GS
[0.97969 0 0 0.98102 353.89961 185.23746] CT
0.851 0.325 0.098 RC
10.0 ML
2.041 LW
N
3.062 0 M
3.062 -1.691 1.691 -3.062 0 -3.062 C
-1.691 -3.062 -3.062 -1.691 -3.062 0 C
-3.062 1.691 -1.691 3.062 0 3.062 C
1.691 3.062 3.062 1.691 3.062 0 C
S
GR
GS
[0.97969 0 0 0.98102 324.93951 182.63329] CT
0.851 0.325 0.098 RC
10.0 ML
2.041 LW
N
3.062 0 M
3.062 -1.691 1.691 -3.062 0 -3.062 C
-1.691 -3.062 -3.062 -1.691 -3.062 0 C
-3.062 1.691 -1.691 3.062 0 3.062 C
1.691 3.062 3.062 1.691 3.062 0 C
S
GR
GS
[0.97969 0 0 0.98102 306.42002 169.44488] CT
0.851 0.325 0.098 RC
10.0 ML
2.041 LW
N
3.062 0 M
3.062 -1.691 1.691 -3.062 0 -3.062 C
-1.691 -3.062 -3.062 -1.691 -3.062 0 C
-3.062 1.691 -1.691 3.062 0 3.062 C
1.691 3.062 3.062 1.691 3.062 0 C
S
GR
GS
[0.97969 0 0 0.98102 252.00153 138.58302] CT
0.851 0.325 0.098 RC
10.0 ML
2.041 LW
N
3.062 0 M
3.062 -1.691 1.691 -3.062 0 -3.062 C
-1.691 -3.062 -3.062 -1.691 -3.062 0 C
-3.062 1.691 -1.691 3.062 0 3.062 C
1.691 3.062 3.062 1.691 3.062 0 C
S
GR
GS
[0.97969 0 0 0.98102 238.53766 126.02469] CT
0.851 0.325 0.098 RC
10.0 ML
2.041 LW
N
3.062 0 M
3.062 -1.691 1.691 -3.062 0 -3.062 C
-1.691 -3.062 -3.062 -1.691 -3.062 0 C
-3.062 1.691 -1.691 3.062 0 3.062 C
1.691 3.062 3.062 1.691 3.062 0 C
S
GR
GS
[0.97969 0 0 0.98102 182.31218 89.27952] CT
0.851 0.325 0.098 RC
10.0 ML
2.041 LW
N
3.062 0 M
3.062 -1.691 1.691 -3.062 0 -3.062 C
-1.691 -3.062 -3.062 -1.691 -3.062 0 C
-3.062 1.691 -1.691 3.062 0 3.062 C
1.691 3.062 3.062 1.691 3.062 0 C
S
GR
GS
[0.97969 0 0 0.98102 0 -0.25] CT
1 GC
N
730 402 M
1111 402 L
1111 35 L
730 35 L
cp
f
GR
GS
[0.97969 0 0 0.98102 0 -0.25] CT
0.149 GC
2 setlinecap
1 LJ
0.51 LW
N
730 402 M
1111 402 L
S
GR
GS
[0.97969 0 0 0.98102 0 -0.25] CT
0.149 GC
2 setlinecap
1 LJ
0.51 LW
N
730 35 M
1111 35 L
S
GR
GS
[0.97969 0 0 0.98102 0 -0.25] CT
0.149 GC
2 setlinecap
1 LJ
0.51 LW
N
753.813 402 M
753.813 398.19 L
S
GR
GS
[0.97969 0 0 0.98102 0 -0.25] CT
0.149 GC
2 setlinecap
1 LJ
0.51 LW
N
813.344 402 M
813.344 398.19 L
S
GR
GS
[0.97969 0 0 0.98102 0 -0.25] CT
0.149 GC
2 setlinecap
1 LJ
0.51 LW
N
872.875 402 M
872.875 398.19 L
S
GR
GS
[0.97969 0 0 0.98102 0 -0.25] CT
0.149 GC
2 setlinecap
1 LJ
0.51 LW
N
932.406 402 M
932.406 398.19 L
S
GR
GS
[0.97969 0 0 0.98102 0 -0.25] CT
0.149 GC
2 setlinecap
1 LJ
0.51 LW
N
991.938 402 M
991.938 398.19 L
S
GR
GS
[0.97969 0 0 0.98102 0 -0.25] CT
0.149 GC
2 setlinecap
1 LJ
0.51 LW
N
1051.469 402 M
1051.469 398.19 L
S
GR
GS
[0.97969 0 0 0.98102 0 -0.25] CT
0.149 GC
2 setlinecap
1 LJ
0.51 LW
N
1111 402 M
1111 398.19 L
S
GR
GS
[0.97969 0 0 0.98102 0 -0.25] CT
0.149 GC
2 setlinecap
1 LJ
0.51 LW
N
753.813 35 M
753.813 38.81 L
S
GR
GS
[0.97969 0 0 0.98102 0 -0.25] CT
0.149 GC
2 setlinecap
1 LJ
0.51 LW
N
813.344 35 M
813.344 38.81 L
S
GR
GS
[0.97969 0 0 0.98102 0 -0.25] CT
0.149 GC
2 setlinecap
1 LJ
0.51 LW
N
872.875 35 M
872.875 38.81 L
S
GR
GS
[0.97969 0 0 0.98102 0 -0.25] CT
0.149 GC
2 setlinecap
1 LJ
0.51 LW
N
932.406 35 M
932.406 38.81 L
S
GR
GS
[0.97969 0 0 0.98102 0 -0.25] CT
0.149 GC
2 setlinecap
1 LJ
0.51 LW
N
991.938 35 M
991.938 38.81 L
S
GR
GS
[0.97969 0 0 0.98102 0 -0.25] CT
0.149 GC
2 setlinecap
1 LJ
0.51 LW
N
1051.469 35 M
1051.469 38.81 L
S
GR
GS
[0.97969 0 0 0.98102 0 -0.25] CT
0.149 GC
2 setlinecap
1 LJ
0.51 LW
N
1111 35 M
1111 38.81 L
S
GR
GS
[0.97969 0 0 0.98102 738.50068 400.74134] CT
0.149 GC
/Times-Roman 20.415 F
GS
[1 0 0 1 0 0] CT
-28.5 19 moveto 
1 -1 scale
(4.5101) t 
GR
GR
GS
[0.97969 0 0 0.98102 855.14473 400.74134] CT
0.149 GC
/Times-Roman 20.415 F
GS
[1 0 0 1 0 0] CT
-28.5 19 moveto 
1 -1 scale
(4.5102) t 
GR
GR
GS
[0.97969 0 0 0.98102 971.78877 400.74134] CT
0.149 GC
/Times-Roman 20.415 F
GS
[1 0 0 1 0 0] CT
-28.5 19 moveto 
1 -1 scale
(4.5103) t 
GR
GR
GS
[0.97969 0 0 0.98102 1088.43281 400.74134] CT
0.149 GC
/Times-Roman 20.415 F
GS
[1 0 0 1 0 0] CT
-28.5 19 moveto 
1 -1 scale
(4.5104) t 
GR
GR
GS
[0.97969 0 0 0.98102 901.80252 424.61283] CT
0.149 GC
/Times-Roman 22.456 F
GS
[1 0 0 1 0 0] CT
-102.5 21 moveto 
1 -1 scale
(UTM y coordinate \(m\)) t 
GR
GR
GS
[0.97969 0 0 0.98102 1043.36719 449.05694] CT
0.149 GC
N
/f682067884{2.938 -0.578 M
2.938 -0.734 3.031 -0.859 QT
7.203 -5 L
3.031 -9.156 L
2.938 -9.266 2.938 -9.422 QT
2.938 -9.578 3.055 -9.703 QT
3.172 -9.828 3.344 -9.828 QT
3.484 -9.828 3.641 -9.703 QT
7.781 -5.563 L
11.906 -9.703 L
12.078 -9.828 12.203 -9.828 QT
12.359 -9.828 12.477 -9.711 QT
12.594 -9.594 12.594 -9.422 QT
12.594 -9.266 12.5 -9.156 QT
8.344 -5 L
12.5 -0.859 L
12.594 -0.734 12.594 -0.578 QT
12.594 -0.406 12.477 -0.289 QT
12.359 -0.172 12.203 -0.172 QT
12.047 -0.172 11.906 -0.328 QT
7.781 -4.438 L
3.641 -0.328 L
3.5 -0.172 3.344 -0.172 QT
3.172 -0.172 3.055 -0.305 QT
2.938 -0.438 2.938 -0.578 QT
cp}def
f682067884
f
GR
GS
[0.97969 0 0 0.98102 1059.04219 449.05694] CT
0.149 GC
/Times-Roman 20.415 F
GS
[1 0 0 1 0 0] CT
0 0 moveto 
1 -1 scale
(10) t 
GR
GR
GS
[0.97969 0 0 0.98102 1079.61563 439.24675] CT
0.149 GC
/Times-Roman 16.332 F
GS
[1 0 0 1 0 0] CT
0 0 moveto 
1 -1 scale
(6) t 
GR
GR
GS
[0.97969 0 0 0.98102 0 -0.25] CT
2 setlinecap
1 LJ
0.51 LW
N
730 402 M
730 35 L
S
GR
GS
[0.97969 0 0 0.98102 0 -0.25] CT
2 setlinecap
1 LJ
0.51 LW
N
730 402 M
733.81 402 L
S
GR
GS
[0.97969 0 0 0.98102 0 -0.25] CT
2 setlinecap
1 LJ
0.51 LW
N
730 349.571 M
733.81 349.571 L
S
GR
GS
[0.97969 0 0 0.98102 0 -0.25] CT
2 setlinecap
1 LJ
0.51 LW
N
730 297.143 M
733.81 297.143 L
S
GR
GS
[0.97969 0 0 0.98102 0 -0.25] CT
2 setlinecap
1 LJ
0.51 LW
N
730 244.714 M
733.81 244.714 L
S
GR
GS
[0.97969 0 0 0.98102 0 -0.25] CT
2 setlinecap
1 LJ
0.51 LW
N
730 192.286 M
733.81 192.286 L
S
GR
GS
[0.97969 0 0 0.98102 0 -0.25] CT
2 setlinecap
1 LJ
0.51 LW
N
730 139.857 M
733.81 139.857 L
S
GR
GS
[0.97969 0 0 0.98102 0 -0.25] CT
2 setlinecap
1 LJ
0.51 LW
N
730 87.429 M
733.81 87.429 L
S
GR
GS
[0.97969 0 0 0.98102 0 -0.25] CT
2 setlinecap
1 LJ
0.51 LW
N
730 35 M
733.81 35 L
S
GR
GS
[0.97969 0 0 0.98102 708.5594 394.11985] CT
/Times-Roman 20.415 F
GS
[1 0 0 1 0 0] CT
-11 7.5 moveto 
1 -1 scale
(0) t 
GR
GR
GS
[0.97969 0 0 0.98102 708.5594 342.68638] CT
/Times-Roman 20.415 F
GS
[1 0 0 1 0 0] CT
-36 7.5 moveto 
1 -1 scale
(0.02) t 
GR
GR
GS
[0.97969 0 0 0.98102 708.5594 291.25294] CT
/Times-Roman 20.415 F
GS
[1 0 0 1 0 0] CT
-36 7.5 moveto 
1 -1 scale
(0.04) t 
GR
GR
GS
[0.97969 0 0 0.98102 708.5594 239.81949] CT
/Times-Roman 20.415 F
GS
[1 0 0 1 0 0] CT
-36 7.5 moveto 
1 -1 scale
(0.06) t 
GR
GR
GS
[0.97969 0 0 0.98102 708.5594 188.38603] CT
/Times-Roman 20.415 F
GS
[1 0 0 1 0 0] CT
-36 7.5 moveto 
1 -1 scale
(0.08) t 
GR
GR
GS
[0.97969 0 0 0.98102 708.5594 136.95258] CT
/Times-Roman 20.415 F
GS
[1 0 0 1 0 0] CT
-26 7.5 moveto 
1 -1 scale
(0.1) t 
GR
GR
GS
[0.97969 0 0 0.98102 708.5594 85.51913] CT
/Times-Roman 20.415 F
GS
[1 0 0 1 0 0] CT
-36 7.5 moveto 
1 -1 scale
(0.12) t 
GR
GR
GS
[0.97969 0 0 0.98102 708.5594 34.08568] CT
/Times-Roman 20.415 F
GS
[1 0 0 1 0 0] CT
-36 7.5 moveto 
1 -1 scale
(0.14) t 
GR
GR
GS
[0 -0.98102 0.97969 0 669.3719 214.1026] CT
/Times-Roman 22.456 F
GS
[1 0 0 1 0 0] CT
-114.5 -5 moveto 
1 -1 scale
(Observed frequency \(Hz\)) t 
GR
GR
GS
[0.97969 0 0 0.98102 0 -0.25] CT
0.851 0.325 0.098 RC
2 setlinecap
1 LJ
0.51 LW
N
1111 402 M
1111 35 L
S
GR
GS
[0.97969 0 0 0.98102 0 -0.25] CT
0.851 0.325 0.098 RC
2 setlinecap
1 LJ
0.51 LW
N
1111 402 M
1107.19 402 L
S
GR
GS
[0.97969 0 0 0.98102 0 -0.25] CT
0.851 0.325 0.098 RC
2 setlinecap
1 LJ
0.51 LW
N
1111 328.6 M
1107.19 328.6 L
S
GR
GS
[0.97969 0 0 0.98102 0 -0.25] CT
0.851 0.325 0.098 RC
2 setlinecap
1 LJ
0.51 LW
N
1111 255.2 M
1107.19 255.2 L
S
GR
GS
[0.97969 0 0 0.98102 0 -0.25] CT
0.851 0.325 0.098 RC
2 setlinecap
1 LJ
0.51 LW
N
1111 181.8 M
1107.19 181.8 L
S
GR
GS
[0.97969 0 0 0.98102 0 -0.25] CT
0.851 0.325 0.098 RC
2 setlinecap
1 LJ
0.51 LW
N
1111 108.4 M
1107.19 108.4 L
S
GR
GS
[0.97969 0 0 0.98102 0 -0.25] CT
0.851 0.325 0.098 RC
2 setlinecap
1 LJ
0.51 LW
N
1111 35 M
1107.19 35 L
S
GR
GS
[0.97969 0 0 0.98102 1095.04534 394.11985] CT
0.851 0.325 0.098 RC
/Times-Roman 20.415 F
GS
[1 0 0 1 0 0] CT
0 7.5 moveto 
1 -1 scale
(0.9) t 
GR
GR
GS
[0.97969 0 0 0.98102 1095.04534 322.11302] CT
0.851 0.325 0.098 RC
/Times-Roman 20.415 F
GS
[1 0 0 1 0 0] CT
0 7.5 moveto 
1 -1 scale
(0.92) t 
GR
GR
GS
[0.97969 0 0 0.98102 1095.04534 250.10618] CT
0.851 0.325 0.098 RC
/Times-Roman 20.415 F
GS
[1 0 0 1 0 0] CT
0 7.5 moveto 
1 -1 scale
(0.94) t 
GR
GR
GS
[0.97969 0 0 0.98102 1095.04534 178.09934] CT
0.851 0.325 0.098 RC
/Times-Roman 20.415 F
GS
[1 0 0 1 0 0] CT
0 7.5 moveto 
1 -1 scale
(0.96) t 
GR
GR
GS
[0.97969 0 0 0.98102 1095.04534 106.09251] CT
0.851 0.325 0.098 RC
/Times-Roman 20.415 F
GS
[1 0 0 1 0 0] CT
0 7.5 moveto 
1 -1 scale
(0.98) t 
GR
GR
GS
[0.97969 0 0 0.98102 1095.04534 34.08568] CT
0.851 0.325 0.098 RC
/Times-Roman 20.415 F
GS
[1 0 0 1 0 0] CT
0 7.5 moveto 
1 -1 scale
(1) t 
GR
GR
GS
[0 -0.98102 0.97969 0 1134.23284 214.1026] CT
0.851 0.325 0.098 RC
/Times-Roman 22.456 F
GS
[1 0 0 1 0 0] CT
-79.5 21 moveto 
1 -1 scale
(Direction Cosine ) t 
GR
GR
GS
[0.97969 0 0 0.98102 0 -0.25] CT
0 0.447 0.741 RC
1 LJ
2.041 LW
N
1082.613 362.801 M
1048.856 225.957 L
1025.798 165.916 L
993.417 235.561 L
965.934 157.333 L
941.33 140.829 L
924.726 102.324 L
895.243 92.328 L
876.389 70.585 L
820.988 119.306 L
807.281 125.634 L
750.04 89.442 L
S
GR
GS
[0.97969 0 0 0.98102 1060.62198 355.66513] CT
0 0.447 0.741 RC
10.0 ML
2.041 LW
N
3.062 0 M
3.062 -1.691 1.691 -3.062 0 -3.062 C
-1.691 -3.062 -3.062 -1.691 -3.062 0 C
-3.062 1.691 -1.691 3.062 0 3.062 C
1.691 3.062 3.062 1.691 3.062 0 C
S
GR
GS
[0.97969 0 0 0.98102 1027.55143 221.41826] CT
0 0.447 0.741 RC
10.0 ML
2.041 LW
N
3.062 0 M
3.062 -1.691 1.691 -3.062 0 -3.062 C
-1.691 -3.062 -3.062 -1.691 -3.062 0 C
-3.062 1.691 -1.691 3.062 0 3.062 C
1.691 3.062 3.062 1.691 3.062 0 C
S
GR
GS
[0.97969 0 0 0.98102 1004.96121 162.51655] CT
0 0.447 0.741 RC
10.0 ML
2.041 LW
N
3.062 0 M
3.062 -1.691 1.691 -3.062 0 -3.062 C
-1.691 -3.062 -3.062 -1.691 -3.062 0 C
-3.062 1.691 -1.691 3.062 0 3.062 C
1.691 3.062 3.062 1.691 3.062 0 C
S
GR
GS
[0.97969 0 0 0.98102 973.23773 230.8395] CT
0 0.447 0.741 RC
10.0 ML
2.041 LW
N
3.062 0 M
3.062 -1.691 1.691 -3.062 0 -3.062 C
-1.691 -3.062 -3.062 -1.691 -3.062 0 C
-3.062 1.691 -1.691 3.062 0 3.062 C
1.691 3.062 3.062 1.691 3.062 0 C
S
GR
GS
[0.97969 0 0 0.98102 946.31349 154.09647] CT
0 0.447 0.741 RC
10.0 ML
2.041 LW
N
3.062 0 M
3.062 -1.691 1.691 -3.062 0 -3.062 C
-1.691 -3.062 -3.062 -1.691 -3.062 0 C
-3.062 1.691 -1.691 3.062 0 3.062 C
1.691 3.062 3.062 1.691 3.062 0 C
S
GR
GS
[0.97969 0 0 0.98102 922.20925 137.90559] CT
0 0.447 0.741 RC
10.0 ML
2.041 LW
N
3.062 0 M
3.062 -1.691 1.691 -3.062 0 -3.062 C
-1.691 -3.062 -3.062 -1.691 -3.062 0 C
-3.062 1.691 -1.691 3.062 0 3.062 C
1.691 3.062 3.062 1.691 3.062 0 C
S
GR
GS
[0.97969 0 0 0.98102 905.94264 100.13184] CT
0 0.447 0.741 RC
10.0 ML
2.041 LW
N
3.062 0 M
3.062 -1.691 1.691 -3.062 0 -3.062 C
-1.691 -3.062 -3.062 -1.691 -3.062 0 C
-3.062 1.691 -1.691 3.062 0 3.062 C
1.691 3.062 3.062 1.691 3.062 0 C
S
GR
GS
[0.97969 0 0 0.98102 877.05836 90.32604] CT
0 0.447 0.741 RC
10.0 ML
2.041 LW
N
3.062 0 M
3.062 -1.691 1.691 -3.062 0 -3.062 C
-1.691 -3.062 -3.062 -1.691 -3.062 0 C
-3.062 1.691 -1.691 3.062 0 3.062 C
1.691 3.062 3.062 1.691 3.062 0 C
S
GR
GS
[0.97969 0 0 0.98102 858.58733 68.9952] CT
0 0.447 0.741 RC
10.0 ML
2.041 LW
N
3.062 0 M
3.062 -1.691 1.691 -3.062 0 -3.062 C
-1.691 -3.062 -3.062 -1.691 -3.062 0 C
-3.062 1.691 -1.691 3.062 0 3.062 C
1.691 3.062 3.062 1.691 3.062 0 C
S
GR
GS
[0.97969 0 0 0.98102 804.3113 116.79187] CT
0 0.447 0.741 RC
10.0 ML
2.041 LW
N
3.062 0 M
3.062 -1.691 1.691 -3.062 0 -3.062 C
-1.691 -3.062 -3.062 -1.691 -3.062 0 C
-3.062 1.691 -1.691 3.062 0 3.062 C
1.691 3.062 3.062 1.691 3.062 0 C
S
GR
GS
[0.97969 0 0 0.98102 790.88269 122.9995] CT
0 0.447 0.741 RC
10.0 ML
2.041 LW
N
3.062 0 M
3.062 -1.691 1.691 -3.062 0 -3.062 C
-1.691 -3.062 -3.062 -1.691 -3.062 0 C
-3.062 1.691 -1.691 3.062 0 3.062 C
1.691 3.062 3.062 1.691 3.062 0 C
S
GR
GS
[0.97969 0 0 0.98102 734.80443 87.49457] CT
0 0.447 0.741 RC
10.0 ML
2.041 LW
N
3.062 0 M
3.062 -1.691 1.691 -3.062 0 -3.062 C
-1.691 -3.062 -3.062 -1.691 -3.062 0 C
-3.062 1.691 -1.691 3.062 0 3.062 C
1.691 3.062 3.062 1.691 3.062 0 C
S
GR
GS
[0.97969 0 0 0.98102 0 -0.25] CT
N
730 35 M
1112 35 L
1112 403 L
730 403 L
730 35 L
cp
clip
0.851 0.325 0.098 RC
1 LJ
2.041 LW
N
1082.613 59.204 M
1048.856 39.11 L
1025.798 227.387 L
993.417 55.76 L
965.934 352.635 L
941.33 49.257 L
924.726 51.152 L
895.243 102.473 L
876.389 95.604 L
820.988 295.83 L
807.281 250.667 L
750.04 239.787 L
S
GR
GS
[0.97969 0 0 0.98102 1060.62198 57.82993] CT
0.851 0.325 0.098 RC
10.0 ML
2.041 LW
N
3.062 0 M
3.062 -1.691 1.691 -3.062 0 -3.062 C
-1.691 -3.062 -3.062 -1.691 -3.062 0 C
-3.062 1.691 -1.691 3.062 0 3.062 C
1.691 3.062 3.062 1.691 3.062 0 C
S
GR
GS
[0.97969 0 0 0.98102 1027.55143 38.11758] CT
0.851 0.325 0.098 RC
10.0 ML
2.041 LW
N
3.062 0 M
3.062 -1.691 1.691 -3.062 0 -3.062 C
-1.691 -3.062 -3.062 -1.691 -3.062 0 C
-3.062 1.691 -1.691 3.062 0 3.062 C
1.691 3.062 3.062 1.691 3.062 0 C
S
GR
GS
[0.97969 0 0 0.98102 1004.96121 222.82109] CT
0.851 0.325 0.098 RC
10.0 ML
2.041 LW
N
3.062 0 M
3.062 -1.691 1.691 -3.062 0 -3.062 C
-1.691 -3.062 -3.062 -1.691 -3.062 0 C
-3.062 1.691 -1.691 3.062 0 3.062 C
1.691 3.062 3.062 1.691 3.062 0 C
S
GR
GS
[0.97969 0 0 0.98102 973.23773 54.45211] CT
0.851 0.325 0.098 RC
10.0 ML
2.041 LW
N
3.062 0 M
3.062 -1.691 1.691 -3.062 0 -3.062 C
-1.691 -3.062 -3.062 -1.691 -3.062 0 C
-3.062 1.691 -1.691 3.062 0 3.062 C
1.691 3.062 3.062 1.691 3.062 0 C
S
GR
GS
[0.97969 0 0 0.98102 946.31349 345.69168] CT
0.851 0.325 0.098 RC
10.0 ML
2.041 LW
N
3.062 0 M
3.062 -1.691 1.691 -3.062 0 -3.062 C
-1.691 -3.062 -3.062 -1.691 -3.062 0 C
-3.062 1.691 -1.691 3.062 0 3.062 C
1.691 3.062 3.062 1.691 3.062 0 C
S
GR
GS
[0.97969 0 0 0.98102 922.20925 48.07209] CT
0.851 0.325 0.098 RC
10.0 ML
2.041 LW
N
3.062 0 M
3.062 -1.691 1.691 -3.062 0 -3.062 C
-1.691 -3.062 -3.062 -1.691 -3.062 0 C
-3.062 1.691 -1.691 3.062 0 3.062 C
1.691 3.062 3.062 1.691 3.062 0 C
S
GR
GS
[0.97969 0 0 0.98102 905.94264 49.93151] CT
0.851 0.325 0.098 RC
10.0 ML
2.041 LW
N
3.062 0 M
3.062 -1.691 1.691 -3.062 0 -3.062 C
-1.691 -3.062 -3.062 -1.691 -3.062 0 C
-3.062 1.691 -1.691 3.062 0 3.062 C
1.691 3.062 3.062 1.691 3.062 0 C
S
GR
GS
[0.97969 0 0 0.98102 877.05836 100.27766] CT
0.851 0.325 0.098 RC
10.0 ML
2.041 LW
N
3.062 0 M
3.062 -1.691 1.691 -3.062 0 -3.062 C
-1.691 -3.062 -3.062 -1.691 -3.062 0 C
-3.062 1.691 -1.691 3.062 0 3.062 C
1.691 3.062 3.062 1.691 3.062 0 C
S
GR
GS
[0.97969 0 0 0.98102 858.58733 93.53907] CT
0.851 0.325 0.098 RC
10.0 ML
2.041 LW
N
3.062 0 M
3.062 -1.691 1.691 -3.062 0 -3.062 C
-1.691 -3.062 -3.062 -1.691 -3.062 0 C
-3.062 1.691 -1.691 3.062 0 3.062 C
1.691 3.062 3.062 1.691 3.062 0 C
S
GR
GS
[0.97969 0 0 0.98102 804.3113 289.96532] CT
0.851 0.325 0.098 RC
10.0 ML
2.041 LW
N
3.062 0 M
3.062 -1.691 1.691 -3.062 0 -3.062 C
-1.691 -3.062 -3.062 -1.691 -3.062 0 C
-3.062 1.691 -1.691 3.062 0 3.062 C
1.691 3.062 3.062 1.691 3.062 0 C
S
GR
GS
[0.97969 0 0 0.98102 790.88269 245.65896] CT
0.851 0.325 0.098 RC
10.0 ML
2.041 LW
N
3.062 0 M
3.062 -1.691 1.691 -3.062 0 -3.062 C
-1.691 -3.062 -3.062 -1.691 -3.062 0 C
-3.062 1.691 -1.691 3.062 0 3.062 C
1.691 3.062 3.062 1.691 3.062 0 C
S
GR
GS
[0.97969 0 0 0.98102 734.80443 234.98566] CT
0.851 0.325 0.098 RC
10.0 ML
2.041 LW
N
3.062 0 M
3.062 -1.691 1.691 -3.062 0 -3.062 C
-1.691 -3.062 -3.062 -1.691 -3.062 0 C
-3.062 1.691 -1.691 3.062 0 3.062 C
1.691 3.062 3.062 1.691 3.062 0 C
S
GR
%%Trailer
%%Pages: 1
%%EOF
