%!PS-Adobe-3.0 EPSF-3.0
%%Creator: (MATLAB, The Mathworks, Inc. Version 9.4.0.813654 \(R2018a\). Operating System: Mac OS X)
%%Title: (/Users/yichenghuang/Documents/MATLAB/Research Thesis/Inlet Hydraulics/spectrum.eps)
%%CreationDate: 2018-07-25T11:25:26
%%Pages: (atend)
%%BoundingBox: 0 0 691 656
%%LanguageLevel: 3
%%EndComments
%%BeginProlog
%%BeginResource: procset (Apache XML Graphics Std ProcSet) 1.2 0
%%Version: 1.2 0
%%Copyright: (Copyright 2001-2003,2010 The Apache Software Foundation. License terms: http://www.apache.org/licenses/LICENSE-2.0)
/bd{bind def}bind def
/ld{load def}bd
/GR/grestore ld
/GS/gsave ld
/RM/rmoveto ld
/C/curveto ld
/t/show ld
/L/lineto ld
/ML/setmiterlimit ld
/CT/concat ld
/f/fill ld
/N/newpath ld
/S/stroke ld
/CC/setcmykcolor ld
/A/ashow ld
/cp/closepath ld
/RC/setrgbcolor ld
/LJ/setlinejoin ld
/GC/setgray ld
/LW/setlinewidth ld
/M/moveto ld
/re {4 2 roll M
1 index 0 rlineto
0 exch rlineto
neg 0 rlineto
cp } bd
/_ctm matrix def
/_tm matrix def
/BT { _ctm currentmatrix pop matrix _tm copy pop 0 0 moveto } bd
/ET { _ctm setmatrix } bd
/iTm { _ctm setmatrix _tm concat } bd
/Tm { _tm astore pop iTm 0 0 moveto } bd
/ux 0.0 def
/uy 0.0 def
/F {
  /Tp exch def
  /Tf exch def
  Tf findfont Tp scalefont setfont
  /cf Tf def  /cs Tp def
} bd
/ULS {currentpoint /uy exch def /ux exch def} bd
/ULE {
  /Tcx currentpoint pop def
  gsave
  newpath
  cf findfont cs scalefont dup
  /FontMatrix get 0 get /Ts exch def /FontInfo get dup
  /UnderlinePosition get Ts mul /To exch def
  /UnderlineThickness get Ts mul /Tt exch def
  ux uy To add moveto  Tcx uy To add lineto
  Tt setlinewidth stroke
  grestore
} bd
/OLE {
  /Tcx currentpoint pop def
  gsave
  newpath
  cf findfont cs scalefont dup
  /FontMatrix get 0 get /Ts exch def /FontInfo get dup
  /UnderlinePosition get Ts mul /To exch def
  /UnderlineThickness get Ts mul /Tt exch def
  ux uy To add cs add moveto Tcx uy To add cs add lineto
  Tt setlinewidth stroke
  grestore
} bd
/SOE {
  /Tcx currentpoint pop def
  gsave
  newpath
  cf findfont cs scalefont dup
  /FontMatrix get 0 get /Ts exch def /FontInfo get dup
  /UnderlinePosition get Ts mul /To exch def
  /UnderlineThickness get Ts mul /Tt exch def
  ux uy To add cs 10 mul 26 idiv add moveto Tcx uy To add cs 10 mul 26 idiv add lineto
  Tt setlinewidth stroke
  grestore
} bd
/QT {
/Y22 exch store
/X22 exch store
/Y21 exch store
/X21 exch store
currentpoint
/Y21 load 2 mul add 3 div exch
/X21 load 2 mul add 3 div exch
/X21 load 2 mul /X22 load add 3 div
/Y21 load 2 mul /Y22 load add 3 div
/X22 load /Y22 load curveto
} bd
/SSPD {
dup length /d exch dict def
{
/v exch def
/k exch def
currentpagedevice k known {
/cpdv currentpagedevice k get def
v cpdv ne {
/upd false def
/nullv v type /nulltype eq def
/nullcpdv cpdv type /nulltype eq def
nullv nullcpdv or
{
/upd true def
} {
/sametype v type cpdv type eq def
sametype {
v type /arraytype eq {
/vlen v length def
/cpdvlen cpdv length def
vlen cpdvlen eq {
0 1 vlen 1 sub {
/i exch def
/obj v i get def
/cpdobj cpdv i get def
obj cpdobj ne {
/upd true def
exit
} if
} for
} {
/upd true def
} ifelse
} {
v type /dicttype eq {
v {
/dv exch def
/dk exch def
/cpddv cpdv dk get def
dv cpddv ne {
/upd true def
exit
} if
} forall
} {
/upd true def
} ifelse
} ifelse
} if
} ifelse
upd true eq {
d k v put
} if
} if
} if
} forall
d length 0 gt {
d setpagedevice
} if
} bd
/RE { % /NewFontName [NewEncodingArray] /FontName RE -
  findfont dup length dict begin
  {
    1 index /FID ne
    {def} {pop pop} ifelse
  } forall
  /Encoding exch def
  /FontName 1 index def
  currentdict definefont pop
  end
} bind def
%%EndResource
%%BeginResource: procset (Apache XML Graphics EPS ProcSet) 1.0 0
%%Version: 1.0 0
%%Copyright: (Copyright 2002-2003 The Apache Software Foundation. License terms: http://www.apache.org/licenses/LICENSE-2.0)
/BeginEPSF { %def
/b4_Inc_state save def         % Save state for cleanup
/dict_count countdictstack def % Count objects on dict stack
/op_count count 1 sub def      % Count objects on operand stack
userdict begin                 % Push userdict on dict stack
/showpage { } def              % Redefine showpage, { } = null proc
0 setgray 0 setlinecap         % Prepare graphics state
1 setlinewidth 0 setlinejoin
10 setmiterlimit [ ] 0 setdash newpath
/languagelevel where           % If level not equal to 1 then
{pop languagelevel             % set strokeadjust and
1 ne                           % overprint to their defaults.
{false setstrokeadjust false setoverprint
} if
} if
} bd
/EndEPSF { %def
count op_count sub {pop} repeat            % Clean up stacks
countdictstack dict_count sub {end} repeat
b4_Inc_state restore
} bd
%%EndResource
%FOPBeginFontDict
%%IncludeResource: font Courier-Oblique
%%IncludeResource: font Courier-BoldOblique
%%IncludeResource: font Courier-Bold
%%IncludeResource: font ZapfDingbats
%%IncludeResource: font Symbol
%%IncludeResource: font Helvetica
%%IncludeResource: font Helvetica-Oblique
%%IncludeResource: font Helvetica-Bold
%%IncludeResource: font Helvetica-BoldOblique
%%IncludeResource: font Times-Roman
%%IncludeResource: font Times-Italic
%%IncludeResource: font Times-Bold
%%IncludeResource: font Times-BoldItalic
%%IncludeResource: font Courier
%FOPEndFontDict
%%BeginResource: encoding WinAnsiEncoding
/WinAnsiEncoding [
/.notdef /.notdef /.notdef /.notdef /.notdef
/.notdef /.notdef /.notdef /.notdef /.notdef
/.notdef /.notdef /.notdef /.notdef /.notdef
/.notdef /.notdef /.notdef /.notdef /.notdef
/.notdef /.notdef /.notdef /.notdef /.notdef
/.notdef /.notdef /.notdef /.notdef /.notdef
/.notdef /.notdef /space /exclam /quotedbl
/numbersign /dollar /percent /ampersand /quotesingle
/parenleft /parenright /asterisk /plus /comma
/hyphen /period /slash /zero /one
/two /three /four /five /six
/seven /eight /nine /colon /semicolon
/less /equal /greater /question /at
/A /B /C /D /E
/F /G /H /I /J
/K /L /M /N /O
/P /Q /R /S /T
/U /V /W /X /Y
/Z /bracketleft /backslash /bracketright /asciicircum
/underscore /quoteleft /a /b /c
/d /e /f /g /h
/i /j /k /l /m
/n /o /p /q /r
/s /t /u /v /w
/x /y /z /braceleft /bar
/braceright /asciitilde /bullet /Euro /bullet
/quotesinglbase /florin /quotedblbase /ellipsis /dagger
/daggerdbl /circumflex /perthousand /Scaron /guilsinglleft
/OE /bullet /Zcaron /bullet /bullet
/quoteleft /quoteright /quotedblleft /quotedblright /bullet
/endash /emdash /asciitilde /trademark /scaron
/guilsinglright /oe /bullet /zcaron /Ydieresis
/space /exclamdown /cent /sterling /currency
/yen /brokenbar /section /dieresis /copyright
/ordfeminine /guillemotleft /logicalnot /sfthyphen /registered
/macron /degree /plusminus /twosuperior /threesuperior
/acute /mu /paragraph /middot /cedilla
/onesuperior /ordmasculine /guillemotright /onequarter /onehalf
/threequarters /questiondown /Agrave /Aacute /Acircumflex
/Atilde /Adieresis /Aring /AE /Ccedilla
/Egrave /Eacute /Ecircumflex /Edieresis /Igrave
/Iacute /Icircumflex /Idieresis /Eth /Ntilde
/Ograve /Oacute /Ocircumflex /Otilde /Odieresis
/multiply /Oslash /Ugrave /Uacute /Ucircumflex
/Udieresis /Yacute /Thorn /germandbls /agrave
/aacute /acircumflex /atilde /adieresis /aring
/ae /ccedilla /egrave /eacute /ecircumflex
/edieresis /igrave /iacute /icircumflex /idieresis
/eth /ntilde /ograve /oacute /ocircumflex
/otilde /odieresis /divide /oslash /ugrave
/uacute /ucircumflex /udieresis /yacute /thorn
/ydieresis
] def
%%EndResource
%FOPBeginFontReencode
/Courier-Oblique findfont
dup length dict begin
  {1 index /FID ne {def} {pop pop} ifelse} forall
  /Encoding WinAnsiEncoding def
  currentdict
end
/Courier-Oblique exch definefont pop
/Courier-BoldOblique findfont
dup length dict begin
  {1 index /FID ne {def} {pop pop} ifelse} forall
  /Encoding WinAnsiEncoding def
  currentdict
end
/Courier-BoldOblique exch definefont pop
/Courier-Bold findfont
dup length dict begin
  {1 index /FID ne {def} {pop pop} ifelse} forall
  /Encoding WinAnsiEncoding def
  currentdict
end
/Courier-Bold exch definefont pop
/Helvetica findfont
dup length dict begin
  {1 index /FID ne {def} {pop pop} ifelse} forall
  /Encoding WinAnsiEncoding def
  currentdict
end
/Helvetica exch definefont pop
/Helvetica-Oblique findfont
dup length dict begin
  {1 index /FID ne {def} {pop pop} ifelse} forall
  /Encoding WinAnsiEncoding def
  currentdict
end
/Helvetica-Oblique exch definefont pop
/Helvetica-Bold findfont
dup length dict begin
  {1 index /FID ne {def} {pop pop} ifelse} forall
  /Encoding WinAnsiEncoding def
  currentdict
end
/Helvetica-Bold exch definefont pop
/Helvetica-BoldOblique findfont
dup length dict begin
  {1 index /FID ne {def} {pop pop} ifelse} forall
  /Encoding WinAnsiEncoding def
  currentdict
end
/Helvetica-BoldOblique exch definefont pop
/Times-Roman findfont
dup length dict begin
  {1 index /FID ne {def} {pop pop} ifelse} forall
  /Encoding WinAnsiEncoding def
  currentdict
end
/Times-Roman exch definefont pop
/Times-Italic findfont
dup length dict begin
  {1 index /FID ne {def} {pop pop} ifelse} forall
  /Encoding WinAnsiEncoding def
  currentdict
end
/Times-Italic exch definefont pop
/Times-Bold findfont
dup length dict begin
  {1 index /FID ne {def} {pop pop} ifelse} forall
  /Encoding WinAnsiEncoding def
  currentdict
end
/Times-Bold exch definefont pop
/Times-BoldItalic findfont
dup length dict begin
  {1 index /FID ne {def} {pop pop} ifelse} forall
  /Encoding WinAnsiEncoding def
  currentdict
end
/Times-BoldItalic exch definefont pop
/Courier findfont
dup length dict begin
  {1 index /FID ne {def} {pop pop} ifelse} forall
  /Encoding WinAnsiEncoding def
  currentdict
end
/Courier exch definefont pop
%FOPEndFontReencode
%%EndProlog
%%Page: 1 1
%%PageBoundingBox: 0 0 691 656
%%BeginPageSetup
[1 0 0 -1 0 656] CT
%%EndPageSetup
GS
1 GC
N
0 0 691 656 re
f
GR
GS
1 GC
N
0 0 691 656 re
f
GR
GS
1 GC
N
90 267 M
625 267 L
625 49 L
90 49 L
cp
f
GR
GS
0 0.447 0.741 RC
2 setlinecap
1 LJ
0.5 LW
N
90 267 M
90 49 L
S
GR
GS
0 0.447 0.741 RC
2 setlinecap
1 LJ
0.5 LW
N
90 267 M
95.35 267 L
S
GR
GS
0 0.447 0.741 RC
2 setlinecap
1 LJ
0.5 LW
N
90 223.4 M
95.35 223.4 L
S
GR
GS
0 0.447 0.741 RC
2 setlinecap
1 LJ
0.5 LW
N
90 179.8 M
95.35 179.8 L
S
GR
GS
0 0.447 0.741 RC
2 setlinecap
1 LJ
0.5 LW
N
90 136.2 M
95.35 136.2 L
S
GR
GS
0 0.447 0.741 RC
2 setlinecap
1 LJ
0.5 LW
N
90 92.6 M
95.35 92.6 L
S
GR
GS
0 0.447 0.741 RC
2 setlinecap
1 LJ
0.5 LW
N
90 49 M
95.35 49 L
S
GR
GS
[1 0 0 1 84 267] CT
0 0.447 0.741 RC
/Times-Roman 20 F
GS
[1 0 0 1 0 0] CT
-10 6.5 moveto 
1 -1 scale
(0) t 
GR
GR
GS
[1 0 0 1 84 223.39999] CT
0 0.447 0.741 RC
/Times-Roman 20 F
GS
[1 0 0 1 0 0] CT
-25 6.5 moveto 
1 -1 scale
(0.2) t 
GR
GR
GS
[1 0 0 1 84 179.8] CT
0 0.447 0.741 RC
/Times-Roman 20 F
GS
[1 0 0 1 0 0] CT
-25 6.5 moveto 
1 -1 scale
(0.4) t 
GR
GR
GS
[1 0 0 1 84 136.2] CT
0 0.447 0.741 RC
/Times-Roman 20 F
GS
[1 0 0 1 0 0] CT
-25 6.5 moveto 
1 -1 scale
(0.6) t 
GR
GR
GS
[1 0 0 1 84 92.6] CT
0 0.447 0.741 RC
/Times-Roman 20 F
GS
[1 0 0 1 0 0] CT
-25 6.5 moveto 
1 -1 scale
(0.8) t 
GR
GR
GS
[1 0 0 1 84 49] CT
0 0.447 0.741 RC
/Times-Roman 20 F
GS
[1 0 0 1 0 0] CT
-10 6.5 moveto 
1 -1 scale
(1) t 
GR
GR
GS
[0 -1 1 0 56 157.99989] CT
0 0.447 0.741 RC
N
-43.424 -2.811 M
-43.424 -24.029 L
-43.424 -24.201 -43.299 -24.311 QT
-43.174 -24.42 -42.986 -24.42 QT
-42.83 -24.42 -42.689 -24.311 QT
-42.549 -24.201 -42.549 -24.029 QT
-42.549 -2.811 L
-42.549 -2.639 -42.689 -2.529 QT
-42.83 -2.42 -42.986 -2.42 QT
-43.174 -2.42 -43.299 -2.529 QT
-43.424 -2.639 -43.424 -2.811 QT
cp
f
GR
GS
[0 -1 1 0 56 157.99989] CT
0 0.447 0.741 RC
N
-39.938 -26.473 17.42 0.88 re
f
GR
GS
[0 -1 1 0 56 157.99989] CT
0 0.447 0.741 RC
N
-36.703 -10.983 M
-36.703 -10.17 -36.383 -9.537 QT
-36.063 -8.904 -35.461 -8.561 QT
-34.86 -8.217 -34.063 -8.217 QT
-33.11 -8.217 -32.219 -8.6 QT
-31.328 -8.983 -30.602 -9.67 QT
-29.875 -10.358 -29.367 -11.24 QT
-28.86 -12.123 -28.641 -12.983 QT
-26.672 -20.92 L
-26.625 -21.154 -26.625 -21.248 QT
-26.625 -22.17 -28.328 -22.17 QT
-28.547 -22.17 -28.547 -22.467 QT
-28.469 -22.748 -28.422 -22.85 QT
-28.375 -22.951 -28.156 -22.951 QT
-23.391 -22.951 L
-23.297 -22.951 -23.235 -22.85 QT
-23.172 -22.748 -23.172 -22.654 QT
-23.172 -22.654 -23.211 -22.498 QT
-23.25 -22.342 -23.313 -22.256 QT
-23.375 -22.17 -23.453 -22.17 QT
-25.563 -22.17 -25.891 -20.826 QT
-27.891 -12.889 L
-28.125 -11.858 -28.711 -10.889 QT
-29.297 -9.92 -30.156 -9.131 QT
-31.016 -8.342 -32.039 -7.889 QT
-33.063 -7.436 -34.125 -7.436 QT
-35.344 -7.436 -36.344 -7.967 QT
-37.344 -8.498 -37.914 -9.459 QT
-38.485 -10.42 -38.485 -11.654 QT
-38.485 -12.373 -38.328 -12.983 QT
-36.203 -21.514 L
-36.156 -21.733 -36.156 -21.826 QT
-36.156 -22.061 -36.406 -22.092 QT
-36.828 -22.17 -38 -22.17 QT
-38.219 -22.17 -38.219 -22.467 QT
-38.141 -22.748 -38.102 -22.85 QT
-38.063 -22.951 -37.844 -22.951 QT
-31.938 -22.951 L
-31.703 -22.951 -31.703 -22.654 QT
-31.719 -22.608 -31.75 -22.475 QT
-31.781 -22.342 -31.836 -22.256 QT
-31.891 -22.17 -32 -22.17 QT
-33.344 -22.17 -33.875 -22.029 QT
-34.156 -21.92 -34.281 -21.42 QT
-36.406 -12.889 L
-36.703 -11.733 -36.703 -10.983 QT
cp
f
GR
GS
[0 -1 1 0 56 157.99989] CT
0 0.447 0.741 RC
N
-19.893 -2.811 M
-19.893 -24.029 L
-19.893 -24.201 -19.768 -24.311 QT
-19.643 -24.42 -19.456 -24.42 QT
-19.299 -24.42 -19.159 -24.311 QT
-19.018 -24.201 -19.018 -24.029 QT
-19.018 -2.811 L
-19.018 -2.639 -19.159 -2.529 QT
-19.299 -2.42 -19.456 -2.42 QT
-19.643 -2.42 -19.768 -2.529 QT
-19.893 -2.639 -19.893 -2.811 QT
cp
f
GR
GS
[0 -1 1 0 56 157.99989] CT
0 0.447 0.741 RC
N
-2.245 -2.467 M
-3.48 -3.436 -4.363 -4.686 QT
-5.245 -5.936 -5.808 -7.35 QT
-6.37 -8.764 -6.652 -10.311 QT
-6.933 -11.858 -6.933 -13.42 QT
-6.933 -14.998 -6.652 -16.545 QT
-6.37 -18.092 -5.8 -19.522 QT
-5.23 -20.951 -4.339 -22.194 QT
-3.449 -23.436 -2.245 -24.373 QT
-2.245 -24.42 -2.152 -24.42 QT
-1.933 -24.42 L
-1.87 -24.42 -1.816 -24.358 QT
-1.761 -24.295 -1.761 -24.233 QT
-1.761 -24.123 -1.808 -24.092 QT
-2.886 -23.029 -3.597 -21.826 QT
-4.308 -20.623 -4.745 -19.264 QT
-5.183 -17.904 -5.378 -16.451 QT
-5.574 -14.998 -5.574 -13.42 QT
-5.574 -6.42 -1.839 -2.795 QT
-1.761 -2.733 -1.761 -2.608 QT
-1.761 -2.561 -1.824 -2.49 QT
-1.886 -2.42 -1.933 -2.42 QT
-2.152 -2.42 L
-2.245 -2.42 -2.245 -2.467 QT
cp
f
GR
GS
[0 -1 1 0 56 157.99989] CT
0 0.447 0.741 RC
N
0.138 -7.92 M
0.138 -8.701 L
0.888 -8.701 1.373 -8.819 QT
1.857 -8.936 1.857 -9.389 QT
1.857 -15.404 L
1.857 -15.983 1.677 -16.248 QT
1.498 -16.514 1.17 -16.576 QT
0.841 -16.639 0.138 -16.639 QT
0.138 -17.404 L
3.326 -17.639 L
3.326 -15.498 L
3.763 -16.436 4.63 -17.037 QT
5.498 -17.639 6.513 -17.639 QT
9.06 -17.639 9.498 -15.576 QT
9.935 -16.498 10.787 -17.069 QT
11.638 -17.639 12.638 -17.639 QT
13.638 -17.639 14.318 -17.319 QT
14.998 -16.998 15.341 -16.334 QT
15.685 -15.67 15.685 -14.67 QT
15.685 -9.389 L
15.685 -8.936 16.177 -8.819 QT
16.67 -8.701 17.404 -8.701 QT
17.404 -7.92 L
12.373 -7.92 L
12.373 -8.701 L
13.123 -8.701 13.607 -8.819 QT
14.091 -8.936 14.091 -9.389 QT
14.091 -14.608 L
14.091 -15.717 13.779 -16.397 QT
13.466 -17.076 12.498 -17.076 QT
11.232 -17.076 10.404 -16.053 QT
9.576 -15.029 9.576 -13.733 QT
9.576 -9.389 L
9.576 -8.936 10.06 -8.819 QT
10.545 -8.701 11.295 -8.701 QT
11.295 -7.92 L
6.263 -7.92 L
6.263 -8.701 L
7.013 -8.701 7.498 -8.819 QT
7.982 -8.936 7.982 -9.389 QT
7.982 -14.608 L
7.982 -15.686 7.67 -16.381 QT
7.357 -17.076 6.388 -17.076 QT
5.107 -17.076 4.287 -16.053 QT
3.466 -15.029 3.466 -13.733 QT
3.466 -9.389 L
3.466 -8.936 3.951 -8.819 QT
4.435 -8.701 5.17 -8.701 QT
5.17 -7.92 L
0.138 -7.92 L
cp
f
GR
GS
[0 -1 1 0 56 157.99989] CT
0 0.447 0.741 RC
N
19.05 -2.858 M
19.05 -2.92 19.065 -2.951 QT
26.722 -24.154 L
26.769 -24.279 26.87 -24.35 QT
26.972 -24.42 27.112 -24.42 QT
27.315 -24.42 27.44 -24.303 QT
27.565 -24.186 27.565 -23.983 QT
27.565 -23.889 L
19.909 -2.686 L
19.784 -2.42 19.487 -2.42 QT
19.315 -2.42 19.183 -2.545 QT
19.05 -2.67 19.05 -2.858 QT
cp
f
GR
GS
[0 -1 1 0 56 157.99989] CT
0 0.447 0.741 RC
N
29.55 -7.858 M
29.55 -11.451 L
29.55 -11.623 29.737 -11.623 QT
30.003 -11.623 L
30.144 -11.623 30.175 -11.451 QT
30.8 -8.248 33.144 -8.248 QT
34.19 -8.248 34.894 -8.725 QT
35.597 -9.201 35.597 -10.186 QT
35.597 -10.889 35.05 -11.389 QT
34.503 -11.889 33.753 -12.076 QT
32.269 -12.373 L
31.534 -12.529 30.925 -12.865 QT
30.315 -13.201 29.933 -13.748 QT
29.55 -14.295 29.55 -15.029 QT
29.55 -15.998 30.058 -16.615 QT
30.565 -17.233 31.386 -17.506 QT
32.206 -17.779 33.144 -17.779 QT
34.269 -17.779 35.112 -17.186 QT
35.737 -17.733 L
35.737 -17.779 35.847 -17.779 QT
36.019 -17.779 L
36.081 -17.779 36.136 -17.725 QT
36.19 -17.67 36.19 -17.592 QT
36.19 -14.717 L
36.19 -14.514 36.019 -14.514 QT
35.737 -14.514 L
35.55 -14.514 35.55 -14.717 QT
35.55 -15.873 34.909 -16.569 QT
34.269 -17.264 33.128 -17.264 QT
32.128 -17.264 31.409 -16.897 QT
30.69 -16.529 30.69 -15.639 QT
30.69 -15.029 31.206 -14.639 QT
31.722 -14.248 32.425 -14.076 QT
33.925 -13.795 L
34.675 -13.623 35.323 -13.217 QT
35.972 -12.811 36.355 -12.186 QT
36.737 -11.561 36.737 -10.779 QT
36.737 -9.983 36.464 -9.397 QT
36.19 -8.811 35.698 -8.428 QT
35.206 -8.045 34.542 -7.858 QT
33.878 -7.67 33.144 -7.67 QT
31.769 -7.67 30.8 -8.592 QT
29.987 -7.733 L
29.987 -7.67 29.862 -7.67 QT
29.737 -7.67 L
29.55 -7.67 29.55 -7.858 QT
cp
f
GR
GS
[0 -1 1 0 56 157.99989] CT
0 0.447 0.741 RC
N
38.915 -2.42 M
38.728 -2.42 38.728 -2.608 QT
38.728 -2.717 38.774 -2.748 QT
42.524 -6.42 42.524 -13.42 QT
42.524 -20.42 38.821 -24.045 QT
38.728 -24.092 38.728 -24.233 QT
38.728 -24.295 38.79 -24.358 QT
38.853 -24.42 38.915 -24.42 QT
39.134 -24.42 L
39.196 -24.42 39.228 -24.373 QT
40.806 -23.139 41.86 -21.35 QT
42.915 -19.561 43.407 -17.545 QT
43.899 -15.529 43.899 -13.42 QT
43.899 -11.858 43.634 -10.35 QT
43.368 -8.842 42.798 -7.373 QT
42.228 -5.904 41.345 -4.67 QT
40.462 -3.436 39.228 -2.467 QT
39.196 -2.42 39.134 -2.42 QT
38.915 -2.42 L
cp
f
GR
GS
0.851 0.325 0.098 RC
2 setlinecap
1 LJ
0.5 LW
N
625 267 M
625 49 L
S
GR
GS
0.851 0.325 0.098 RC
2 setlinecap
1 LJ
0.5 LW
N
625 267 M
619.65 267 L
S
GR
GS
0.851 0.325 0.098 RC
2 setlinecap
1 LJ
0.5 LW
N
625 212.5 M
619.65 212.5 L
S
GR
GS
0.851 0.325 0.098 RC
2 setlinecap
1 LJ
0.5 LW
N
625 158 M
619.65 158 L
S
GR
GS
0.851 0.325 0.098 RC
2 setlinecap
1 LJ
0.5 LW
N
625 103.5 M
619.65 103.5 L
S
GR
GS
0.851 0.325 0.098 RC
2 setlinecap
1 LJ
0.5 LW
N
625 49 M
619.65 49 L
S
GR
GS
[1 0 0 1 631 267] CT
0.851 0.325 0.098 RC
/Times-Roman 20 F
GS
[1 0 0 1 0 0] CT
0 6.5 moveto 
1 -1 scale
(0) t 
GR
GR
GS
[1 0 0 1 631 212.5] CT
0.851 0.325 0.098 RC
/Times-Roman 20 F
GS
[1 0 0 1 0 0] CT
0 6.5 moveto 
1 -1 scale
(0.1) t 
GR
GR
GS
[1 0 0 1 631 158] CT
0.851 0.325 0.098 RC
/Times-Roman 20 F
GS
[1 0 0 1 0 0] CT
0 6.5 moveto 
1 -1 scale
(0.2) t 
GR
GR
GS
[1 0 0 1 631 103.49999] CT
0.851 0.325 0.098 RC
/Times-Roman 20 F
GS
[1 0 0 1 0 0] CT
0 6.5 moveto 
1 -1 scale
(0.3) t 
GR
GR
GS
[1 0 0 1 631 49] CT
0.851 0.325 0.098 RC
/Times-Roman 20 F
GS
[1 0 0 1 0 0] CT
0 6.5 moveto 
1 -1 scale
(0.4) t 
GR
GR
GS
[0 -1 1 0 659 157.99989] CT
0.851 0.325 0.098 RC
N
-24.886 18.73 M
-25.167 18.73 -25.355 18.558 QT
-25.542 18.386 -25.542 18.105 QT
-25.542 17.98 -25.527 17.917 QT
-23.886 11.339 L
-23.714 10.73 -23.714 10.277 QT
-23.714 9.324 -24.37 9.324 QT
-25.058 9.324 -25.386 10.144 QT
-25.714 10.964 -26.027 12.23 QT
-26.027 12.292 -26.097 12.331 QT
-26.167 12.371 -26.214 12.371 QT
-26.464 12.371 L
-26.542 12.371 -26.597 12.285 QT
-26.652 12.199 -26.652 12.136 QT
-26.417 11.183 -26.199 10.519 QT
-25.98 9.855 -25.511 9.308 QT
-25.042 8.761 -24.339 8.761 QT
-23.527 8.761 -22.886 9.277 QT
-22.245 9.792 -22.245 10.605 QT
-21.605 9.746 -20.738 9.253 QT
-19.87 8.761 -18.839 8.761 QT
-17.699 8.761 -17.003 9.378 QT
-16.308 9.996 -16.308 11.136 QT
-16.308 11.792 -16.464 12.339 QT
-19.011 22.527 L
-19.074 22.839 -19.331 23.035 QT
-19.589 23.23 -19.917 23.23 QT
-20.183 23.23 -20.378 23.066 QT
-20.574 22.902 -20.574 22.621 QT
-20.574 22.48 -20.558 22.449 QT
-18.027 12.308 L
-17.808 11.402 -17.808 10.792 QT
-17.808 10.183 -18.066 9.753 QT
-18.324 9.324 -18.886 9.324 QT
-21.042 9.324 -22.48 11.996 QT
-23.964 17.996 L
-24.042 18.292 -24.308 18.511 QT
-24.574 18.73 -24.886 18.73 QT
cp
f
GR
GS
[0 -1 1 0 659 157.99989] CT
0.851 0.325 0.098 RC
N
-1.371 23.933 M
-2.605 22.964 -3.488 21.714 QT
-4.371 20.464 -4.933 19.05 QT
-5.496 17.636 -5.777 16.089 QT
-6.058 14.542 -6.058 12.98 QT
-6.058 11.402 -5.777 9.855 QT
-5.496 8.308 -4.926 6.878 QT
-4.355 5.449 -3.465 4.206 QT
-2.574 2.964 -1.371 2.027 QT
-1.371 1.98 -1.277 1.98 QT
-1.058 1.98 L
-0.996 1.98 -0.941 2.042 QT
-0.887 2.105 -0.887 2.167 QT
-0.887 2.277 -0.933 2.308 QT
-2.012 3.371 -2.723 4.574 QT
-3.433 5.777 -3.871 7.136 QT
-4.308 8.496 -4.504 9.949 QT
-4.699 11.402 -4.699 12.98 QT
-4.699 19.98 -0.965 23.605 QT
-0.887 23.667 -0.887 23.792 QT
-0.887 23.839 -0.949 23.91 QT
-1.012 23.98 -1.058 23.98 QT
-1.277 23.98 L
-1.371 23.98 -1.371 23.933 QT
cp
f
GR
GS
[0 -1 1 0 659 157.99989] CT
0.851 0.325 0.098 RC
N
1.013 18.48 M
1.013 17.699 L
1.763 17.699 2.247 17.581 QT
2.731 17.464 2.731 17.011 QT
2.731 10.996 L
2.731 10.417 2.552 10.152 QT
2.372 9.886 2.044 9.824 QT
1.716 9.761 1.013 9.761 QT
1.013 8.996 L
4.2 8.761 L
4.2 10.902 L
4.638 9.964 5.505 9.363 QT
6.372 8.761 7.388 8.761 QT
9.935 8.761 10.372 10.824 QT
10.81 9.902 11.661 9.331 QT
12.513 8.761 13.513 8.761 QT
14.513 8.761 15.192 9.081 QT
15.872 9.402 16.216 10.066 QT
16.56 10.73 16.56 11.73 QT
16.56 17.011 L
16.56 17.464 17.052 17.581 QT
17.544 17.699 18.278 17.699 QT
18.278 18.48 L
13.247 18.48 L
13.247 17.699 L
13.997 17.699 14.481 17.581 QT
14.966 17.464 14.966 17.011 QT
14.966 11.792 L
14.966 10.683 14.653 10.003 QT
14.341 9.324 13.372 9.324 QT
12.106 9.324 11.278 10.347 QT
10.45 11.371 10.45 12.667 QT
10.45 17.011 L
10.45 17.464 10.935 17.581 QT
11.419 17.699 12.169 17.699 QT
12.169 18.48 L
7.138 18.48 L
7.138 17.699 L
7.888 17.699 8.372 17.581 QT
8.856 17.464 8.856 17.011 QT
8.856 11.792 L
8.856 10.714 8.544 10.019 QT
8.231 9.324 7.263 9.324 QT
5.981 9.324 5.161 10.347 QT
4.341 11.371 4.341 12.667 QT
4.341 17.011 L
4.341 17.464 4.825 17.581 QT
5.31 17.699 6.044 17.699 QT
6.044 18.48 L
1.013 18.48 L
cp
f
GR
GS
[0 -1 1 0 659 157.99989] CT
0.851 0.325 0.098 RC
N
20.112 23.98 M
19.924 23.98 19.924 23.792 QT
19.924 23.683 19.971 23.652 QT
23.721 19.98 23.721 12.98 QT
23.721 5.98 20.018 2.355 QT
19.924 2.308 19.924 2.167 QT
19.924 2.105 19.987 2.042 QT
20.049 1.98 20.112 1.98 QT
20.33 1.98 L
20.393 1.98 20.424 2.027 QT
22.002 3.261 23.057 5.05 QT
24.112 6.839 24.604 8.855 QT
25.096 10.871 25.096 12.98 QT
25.096 14.542 24.83 16.05 QT
24.565 17.558 23.995 19.027 QT
23.424 20.496 22.541 21.73 QT
21.659 22.964 20.424 23.933 QT
20.393 23.98 20.33 23.98 QT
20.112 23.98 L
cp
f
GR
GS
0 0.447 0.741 RC
1 LJ
0.5 LW
N
90 267 M
625 267 L
S
GR
GS
[1 0 0 1 90 241.3196] CT
0 0.447 0.741 RC
10.0 ML
2 LW
N
3 0 M
3 -1.657 1.657 -3 0 -3 C
-1.657 -3 -3 -1.657 -3 0 C
-3 1.657 -1.657 3 0 3 C
1.657 3 3 1.657 3 0 C
cp
S
GR
GS
[1 0 0 1 213.06743 73.78659] CT
0 0.447 0.741 RC
10.0 ML
2 LW
N
3 0 M
3 -1.657 1.657 -3 0 -3 C
-1.657 -3 -3 -1.657 -3 0 C
-3 1.657 -1.657 3 0 3 C
1.657 3 3 1.657 3 0 C
cp
S
GR
GS
[1 0 0 1 274.60114 266.93863] CT
0 0.447 0.741 RC
10.0 ML
2 LW
N
3 0 M
3 -1.657 1.657 -3 0 -3 C
-1.657 -3 -3 -1.657 -3 0 C
-3 1.657 -1.657 3 0 3 C
1.657 3 3 1.657 3 0 C
cp
S
GR
GS
[1 0 0 1 336.13486 235.063] CT
0 0.447 0.741 RC
10.0 ML
2 LW
N
3 0 M
3 -1.657 1.657 -3 0 -3 C
-1.657 -3 -3 -1.657 -3 0 C
-3 1.657 -1.657 3 0 3 C
1.657 3 3 1.657 3 0 C
cp
S
GR
GS
[1 0 0 1 459.20227 247.93153] CT
0 0.447 0.741 RC
10.0 ML
2 LW
N
3 0 M
3 -1.657 1.657 -3 0 -3 C
-1.657 -3 -3 -1.657 -3 0 C
-3 1.657 -1.657 3 0 3 C
1.657 3 3 1.657 3 0 C
cp
S
GR
GS
[1 0 0 1 582.26971 256.18939] CT
0 0.447 0.741 RC
10.0 ML
2 LW
N
3 0 M
3 -1.657 1.657 -3 0 -3 C
-1.657 -3 -3 -1.657 -3 0 C
-3 1.657 -1.657 3 0 3 C
1.657 3 3 1.657 3 0 C
cp
S
GR
GS
[1 0 0 1 153.86478 262.23233] CT
0 0.447 0.741 RC
10.0 ML
2 LW
N
3 0 M
3 -1.657 1.657 -3 0 -3 C
-1.657 -3 -3 -1.657 -3 0 C
-3 1.657 -1.657 3 0 3 C
1.657 3 3 1.657 3 0 C
cp
S
GR
GS
[1 0 0 1 399.99963 266.59976] CT
0 0.447 0.741 RC
10.0 ML
2 LW
N
3 0 M
3 -1.657 1.657 -3 0 -3 C
-1.657 -3 -3 -1.657 -3 0 C
-3 1.657 -1.657 3 0 3 C
1.657 3 3 1.657 3 0 C
cp
S
GR
GS
[1 0 0 1 523.06708 266.17813] CT
0 0.447 0.741 RC
10.0 ML
2 LW
N
3 0 M
3 -1.657 1.657 -3 0 -3 C
-1.657 -3 -3 -1.657 -3 0 C
-3 1.657 -1.657 3 0 3 C
1.657 3 3 1.657 3 0 C
cp
S
GR
GS
N
90 49 M
626 49 L
626 268 L
90 268 L
90 49 L
cp
clip
0 0.447 0.741 RC
1 LJ
2 LW
N
90 267 M
90 241.32 L
S
GR
GS
N
90 49 M
626 49 L
626 268 L
90 268 L
90 49 L
cp
clip
0 0.447 0.741 RC
1 LJ
2 LW
N
213.067 267 M
213.067 73.787 L
S
GR
GS
N
90 49 M
626 49 L
626 268 L
90 268 L
90 49 L
cp
clip
0 0.447 0.741 RC
1 LJ
2 LW
N
274.601 267 M
274.601 266.939 L
S
GR
GS
N
90 49 M
626 49 L
626 268 L
90 268 L
90 49 L
cp
clip
0 0.447 0.741 RC
1 LJ
2 LW
N
336.135 267 M
336.135 235.063 L
S
GR
GS
N
90 49 M
626 49 L
626 268 L
90 268 L
90 49 L
cp
clip
0 0.447 0.741 RC
1 LJ
2 LW
N
459.202 267 M
459.202 247.932 L
S
GR
GS
N
90 49 M
626 49 L
626 268 L
90 268 L
90 49 L
cp
clip
0 0.447 0.741 RC
1 LJ
2 LW
N
582.27 267 M
582.27 256.189 L
S
GR
GS
N
90 49 M
626 49 L
626 268 L
90 268 L
90 49 L
cp
clip
0 0.447 0.741 RC
1 LJ
2 LW
N
153.865 267 M
153.865 262.232 L
S
GR
GS
N
90 49 M
626 49 L
626 268 L
90 268 L
90 49 L
cp
clip
0 0.447 0.741 RC
1 LJ
2 LW
N
400 267 M
400 266.6 L
S
GR
GS
N
90 49 M
626 49 L
626 268 L
90 268 L
90 49 L
cp
clip
0 0.447 0.741 RC
1 LJ
2 LW
N
523.067 267 M
523.067 266.178 L
S
GR
GS
0.851 0.325 0.098 RC
1 LJ
0.5 LW
N
90 267 M
625 267 L
S
GR
GS
[1 0 0 1 90 178.383] CT
0.851 0.325 0.098 RC
10.0 ML
N
3 0 M
3 -1.657 1.657 -3 0 -3 C
-1.657 -3 -3 -1.657 -3 0 C
-3 1.657 -1.657 3 0 3 C
1.657 3 3 1.657 3 0 C
cp
S
GR
GS
[1 0 0 1 213.06743 90.638] CT
0.851 0.325 0.098 RC
10.0 ML
N
3 0 M
3 -1.657 1.657 -3 0 -3 C
-1.657 -3 -3 -1.657 -3 0 C
-3 1.657 -1.657 3 0 3 C
1.657 3 3 1.657 3 0 C
cp
S
GR
GS
[1 0 0 1 274.60114 243.13991] CT
0.851 0.325 0.098 RC
10.0 ML
N
3 0 M
3 -1.657 1.657 -3 0 -3 C
-1.657 -3 -3 -1.657 -3 0 C
-3 1.657 -1.657 3 0 3 C
1.657 3 3 1.657 3 0 C
cp
S
GR
GS
[1 0 0 1 336.13486 265.5383] CT
0.851 0.325 0.098 RC
10.0 ML
N
3 0 M
3 -1.657 1.657 -3 0 -3 C
-1.657 -3 -3 -1.657 -3 0 C
-3 1.657 -1.657 3 0 3 C
1.657 3 3 1.657 3 0 C
cp
S
GR
GS
[1 0 0 1 459.20227 257.65869] CT
0.851 0.325 0.098 RC
10.0 ML
N
3 0 M
3 -1.657 1.657 -3 0 -3 C
-1.657 -3 -3 -1.657 -3 0 C
-3 1.657 -1.657 3 0 3 C
1.657 3 3 1.657 3 0 C
cp
S
GR
GS
[1 0 0 1 582.26971 262.6618] CT
0.851 0.325 0.098 RC
10.0 ML
N
3 0 M
3 -1.657 1.657 -3 0 -3 C
-1.657 -3 -3 -1.657 -3 0 C
-3 1.657 -1.657 3 0 3 C
1.657 3 3 1.657 3 0 C
cp
S
GR
GS
[1 0 0 1 153.86478 241.79919] CT
0.851 0.325 0.098 RC
10.0 ML
N
3 0 M
3 -1.657 1.657 -3 0 -3 C
-1.657 -3 -3 -1.657 -3 0 C
-3 1.657 -1.657 3 0 3 C
1.657 3 3 1.657 3 0 C
cp
S
GR
GS
[1 0 0 1 399.99963 261.76529] CT
0.851 0.325 0.098 RC
10.0 ML
N
3 0 M
3 -1.657 1.657 -3 0 -3 C
-1.657 -3 -3 -1.657 -3 0 C
-3 1.657 -1.657 3 0 3 C
1.657 3 3 1.657 3 0 C
cp
S
GR
GS
[1 0 0 1 523.06708 263.51419] CT
0.851 0.325 0.098 RC
10.0 ML
N
3 0 M
3 -1.657 1.657 -3 0 -3 C
-1.657 -3 -3 -1.657 -3 0 C
-3 1.657 -1.657 3 0 3 C
1.657 3 3 1.657 3 0 C
cp
S
GR
GS
N
90 49 M
626 49 L
626 268 L
90 268 L
90 49 L
cp
clip
0.851 0.325 0.098 RC
1 LJ
N
90 267 M
90 178.383 L
S
GR
GS
N
90 49 M
626 49 L
626 268 L
90 268 L
90 49 L
cp
clip
0.851 0.325 0.098 RC
1 LJ
N
213.067 267 M
213.067 90.638 L
S
GR
GS
N
90 49 M
626 49 L
626 268 L
90 268 L
90 49 L
cp
clip
0.851 0.325 0.098 RC
1 LJ
N
274.601 267 M
274.601 243.14 L
S
GR
GS
N
90 49 M
626 49 L
626 268 L
90 268 L
90 49 L
cp
clip
0.851 0.325 0.098 RC
1 LJ
N
336.135 267 M
336.135 265.538 L
S
GR
GS
N
90 49 M
626 49 L
626 268 L
90 268 L
90 49 L
cp
clip
0.851 0.325 0.098 RC
1 LJ
N
459.202 267 M
459.202 257.659 L
S
GR
GS
N
90 49 M
626 49 L
626 268 L
90 268 L
90 49 L
cp
clip
0.851 0.325 0.098 RC
1 LJ
N
582.27 267 M
582.27 262.662 L
S
GR
GS
N
90 49 M
626 49 L
626 268 L
90 268 L
90 49 L
cp
clip
0.851 0.325 0.098 RC
1 LJ
N
153.865 267 M
153.865 241.799 L
S
GR
GS
N
90 49 M
626 49 L
626 268 L
90 268 L
90 49 L
cp
clip
0.851 0.325 0.098 RC
1 LJ
N
400 267 M
400 261.765 L
S
GR
GS
N
90 49 M
626 49 L
626 268 L
90 268 L
90 49 L
cp
clip
0.851 0.325 0.098 RC
1 LJ
N
523.067 267 M
523.067 263.514 L
S
GR
GS
0.149 GC
2 setlinecap
1 LJ
0.5 LW
N
90 267 M
625 267 L
S
GR
GS
0.149 GC
2 setlinecap
1 LJ
0.5 LW
N
90 267 M
90 261.65 L
S
GR
GS
0.149 GC
2 setlinecap
1 LJ
0.5 LW
N
166.429 267 M
166.429 261.65 L
S
GR
GS
0.149 GC
2 setlinecap
1 LJ
0.5 LW
N
242.857 267 M
242.857 261.65 L
S
GR
GS
0.149 GC
2 setlinecap
1 LJ
0.5 LW
N
319.286 267 M
319.286 261.65 L
S
GR
GS
0.149 GC
2 setlinecap
1 LJ
0.5 LW
N
395.714 267 M
395.714 261.65 L
S
GR
GS
0.149 GC
2 setlinecap
1 LJ
0.5 LW
N
472.143 267 M
472.143 261.65 L
S
GR
GS
0.149 GC
2 setlinecap
1 LJ
0.5 LW
N
548.571 267 M
548.571 261.65 L
S
GR
GS
0.149 GC
2 setlinecap
1 LJ
0.5 LW
N
625 267 M
625 261.65 L
S
GR
GS
[1 0 0 1 90 273] CT
0.149 GC
/Times-Roman 20 F
GS
[1 0 0 1 0 0] CT
-5 18 moveto 
1 -1 scale
(0) t 
GR
GR
GS
[1 0 0 1 166.42857 273] CT
0.149 GC
/Times-Roman 20 F
GS
[1 0 0 1 0 0] CT
-17.5 18 moveto 
1 -1 scale
(0.05) t 
GR
GR
GS
[1 0 0 1 242.85715 273] CT
0.149 GC
/Times-Roman 20 F
GS
[1 0 0 1 0 0] CT
-12.5 18 moveto 
1 -1 scale
(0.1) t 
GR
GR
GS
[1 0 0 1 319.28574 273] CT
0.149 GC
/Times-Roman 20 F
GS
[1 0 0 1 0 0] CT
-17.5 18 moveto 
1 -1 scale
(0.15) t 
GR
GR
GS
[1 0 0 1 395.71429 273] CT
0.149 GC
/Times-Roman 20 F
GS
[1 0 0 1 0 0] CT
-12.5 18 moveto 
1 -1 scale
(0.2) t 
GR
GR
GS
[1 0 0 1 472.14285 273] CT
0.149 GC
/Times-Roman 20 F
GS
[1 0 0 1 0 0] CT
-17.5 18 moveto 
1 -1 scale
(0.25) t 
GR
GR
GS
[1 0 0 1 548.57147 273] CT
0.149 GC
/Times-Roman 20 F
GS
[1 0 0 1 0 0] CT
-12.5 18 moveto 
1 -1 scale
(0.3) t 
GR
GR
GS
[1 0 0 1 625 273] CT
0.149 GC
/Times-Roman 20 F
GS
[1 0 0 1 0 0] CT
-17.5 18 moveto 
1 -1 scale
(0.35) t 
GR
GR
GS
[1 0 0 1 286 324] CT
0.149 GC
/Times-Roman 22 F
GS
[1 0 0 1 0 0] CT
0 0 moveto 
1 -1 scale
(frequency \(hr) t 
GR
GR
GS
[1 0 0 1 406 313] CT
0.149 GC
/Times-Roman 17.6 F
GS
[1 0 0 1 0 0] CT
0 0 moveto 
1 -1 scale
(-1) t 
GR
GR
GS
[1 0 0 1 421 324] CT
0.149 GC
/Times-Roman 22 F
GS
[1 0 0 1 0 0] CT
0 0 moveto 
1 -1 scale
(\)) t 
GR
GR
GS
0.149 GC
2 setlinecap
1 LJ
0.5 LW
N
90 49 M
625 49 L
S
GR
GS
0.149 GC
2 setlinecap
1 LJ
0.5 LW
N
90 49 M
90 54.35 L
S
GR
GS
0.149 GC
2 setlinecap
1 LJ
0.5 LW
N
153.865 49 M
153.865 54.35 L
S
GR
GS
0.149 GC
2 setlinecap
1 LJ
0.5 LW
N
213.067 49 M
213.067 54.35 L
S
GR
GS
0.149 GC
2 setlinecap
1 LJ
0.5 LW
N
274.601 49 M
274.601 54.35 L
S
GR
GS
0.149 GC
2 setlinecap
1 LJ
0.5 LW
N
336.135 49 M
336.135 54.35 L
S
GR
GS
0.149 GC
2 setlinecap
1 LJ
0.5 LW
N
400 49 M
400 54.35 L
S
GR
GS
0.149 GC
2 setlinecap
1 LJ
0.5 LW
N
459.202 49 M
459.202 54.35 L
S
GR
GS
0.149 GC
2 setlinecap
1 LJ
0.5 LW
N
523.067 49 M
523.067 54.35 L
S
GR
GS
0.149 GC
2 setlinecap
1 LJ
0.5 LW
N
582.27 49 M
582.27 54.35 L
S
GR
GS
[1 0 0 1 90 42.99999] CT
0.149 GC
/Times-Roman 20 F
GS
[1 0 0 1 0 0] CT
-23 -5 moveto 
1 -1 scale
(Mean) t 
GR
GR
GS
[1 0 0 1 153.86478 42.99999] CT
0.149 GC
/Times-Roman 20 F
GS
[1 0 0 1 0 0] CT
-12.5 -5 moveto 
1 -1 scale
(K1) t 
GR
GR
GS
[1 0 0 1 213.06743 42.99999] CT
0.149 GC
/Times-Roman 20 F
GS
[1 0 0 1 0 0] CT
-14 -5 moveto 
1 -1 scale
(M2) t 
GR
GR
GS
[1 0 0 1 274.60114 42.99999] CT
0.149 GC
/Times-Roman 20 F
GS
[1 0 0 1 0 0] CT
-14 -5 moveto 
1 -1 scale
(M3) t 
GR
GR
GS
[1 0 0 1 336.13486 42.99999] CT
0.149 GC
/Times-Roman 20 F
GS
[1 0 0 1 0 0] CT
-14 -5 moveto 
1 -1 scale
(M4) t 
GR
GR
GS
[1 0 0 1 399.99963 42.99999] CT
0.149 GC
/Times-Roman 20 F
GS
[1 0 0 1 0 0] CT
-26.5 -5 moveto 
1 -1 scale
(2MK5) t 
GR
GR
GS
[1 0 0 1 459.20227 42.99999] CT
0.149 GC
/Times-Roman 20 F
GS
[1 0 0 1 0 0] CT
-14 -5 moveto 
1 -1 scale
(M6) t 
GR
GR
GS
[1 0 0 1 523.06708 42.99999] CT
0.149 GC
/Times-Roman 20 F
GS
[1 0 0 1 0 0] CT
-26.5 -5 moveto 
1 -1 scale
(3MK8) t 
GR
GR
GS
[1 0 0 1 582.26971 42.99999] CT
0.149 GC
/Times-Roman 20 F
GS
[1 0 0 1 0 0] CT
-14 -5 moveto 
1 -1 scale
(M8) t 
GR
GR
GS
0.149 GC
2 setlinecap
1 LJ
0.5 LW
N
625 273 M
625 49 L
S
GR
GS
1 GC
N
90 578 M
625 578 L
625 360 L
90 360 L
cp
f
GR
GS
0 0.447 0.741 RC
2 setlinecap
1 LJ
0.5 LW
N
90 578 M
90 360 L
S
GR
GS
0 0.447 0.741 RC
2 setlinecap
1 LJ
0.5 LW
N
90 578 M
95.35 578 L
S
GR
GS
0 0.447 0.741 RC
2 setlinecap
1 LJ
0.5 LW
N
90 517.444 M
95.35 517.444 L
S
GR
GS
0 0.447 0.741 RC
2 setlinecap
1 LJ
0.5 LW
N
90 456.889 M
95.35 456.889 L
S
GR
GS
0 0.447 0.741 RC
2 setlinecap
1 LJ
0.5 LW
N
90 396.333 M
95.35 396.333 L
S
GR
GS
[1 0 0 1 84 578] CT
0 0.447 0.741 RC
/Times-Roman 20 F
GS
[1 0 0 1 0 0] CT
-10 6.5 moveto 
1 -1 scale
(0) t 
GR
GR
GS
[1 0 0 1 84 517.44446] CT
0 0.447 0.741 RC
/Times-Roman 20 F
GS
[1 0 0 1 0 0] CT
-30 6.5 moveto 
1 -1 scale
(100) t 
GR
GR
GS
[1 0 0 1 84 456.88889] CT
0 0.447 0.741 RC
/Times-Roman 20 F
GS
[1 0 0 1 0 0] CT
-30 6.5 moveto 
1 -1 scale
(200) t 
GR
GR
GS
[1 0 0 1 84 396.33334] CT
0 0.447 0.741 RC
/Times-Roman 20 F
GS
[1 0 0 1 0 0] CT
-30 6.5 moveto 
1 -1 scale
(300) t 
GR
GR
GS
[0 -1 1 0 51 468.99991] CT
0 0.447 0.741 RC
N
-22.793 -3.639 M
-21.809 -7.608 L
-22.918 -7.608 -23.887 -8.131 QT
-24.856 -8.654 -25.441 -9.584 QT
-26.027 -10.514 -26.027 -11.623 QT
-26.027 -12.811 -25.434 -13.897 QT
-24.84 -14.983 -23.816 -15.865 QT
-22.793 -16.748 -21.613 -17.225 QT
-20.434 -17.701 -19.277 -17.701 QT
-17.949 -23.061 L
-17.902 -23.186 -17.777 -23.186 QT
-17.512 -23.186 L
-17.418 -23.186 -17.363 -23.108 QT
-17.309 -23.029 -17.309 -22.967 QT
-18.637 -17.701 L
-17.809 -17.701 -17.035 -17.404 QT
-16.262 -17.108 -15.668 -16.561 QT
-15.074 -16.014 -14.738 -15.279 QT
-14.402 -14.545 -14.402 -13.717 QT
-14.402 -12.514 -14.996 -11.428 QT
-15.59 -10.342 -16.59 -9.475 QT
-17.59 -8.608 -18.816 -8.108 QT
-20.043 -7.608 -21.168 -7.608 QT
-22.168 -3.529 L
-22.215 -3.404 -22.356 -3.404 QT
-22.606 -3.404 L
-22.699 -3.404 -22.746 -3.49 QT
-22.793 -3.576 -22.793 -3.639 QT
cp
-21.668 -8.186 M
-19.418 -17.139 L
-19.981 -17.139 -20.59 -16.912 QT
-21.199 -16.686 -21.746 -16.342 QT
-22.293 -15.998 -22.731 -15.561 QT
-23.262 -15.014 -23.676 -14.287 QT
-24.09 -13.561 -24.293 -12.748 QT
-24.496 -11.936 -24.496 -11.154 QT
-24.496 -10.326 -24.145 -9.647 QT
-23.793 -8.967 -23.145 -8.576 QT
-22.496 -8.186 -21.668 -8.186 QT
cp
-21.012 -8.186 M
-20.184 -8.186 -19.246 -8.662 QT
-18.309 -9.139 -17.715 -9.764 QT
-16.887 -10.592 -16.41 -11.772 QT
-15.934 -12.951 -15.934 -14.17 QT
-15.934 -14.983 -16.285 -15.67 QT
-16.637 -16.358 -17.285 -16.748 QT
-17.934 -17.139 -18.762 -17.139 QT
-21.012 -8.186 L
cp
f
GR
GS
[0 -1 1 0 51 468.99991] CT
0 0.447 0.741 RC
N
-12.185 -17.685 M
-12.185 -17.044 -11.857 -16.591 QT
-11.528 -16.138 -10.903 -16.138 QT
-10.013 -16.138 -9.185 -16.544 QT
-8.357 -16.951 -7.841 -17.669 QT
-7.794 -17.716 -7.732 -17.716 QT
-7.653 -17.716 -7.575 -17.63 QT
-7.497 -17.544 -7.497 -17.482 QT
-7.497 -17.419 -7.528 -17.388 QT
-8.075 -16.622 -9.005 -16.177 QT
-9.935 -15.732 -10.935 -15.732 QT
-11.653 -15.732 -12.2 -16.076 QT
-12.747 -16.419 -13.052 -16.99 QT
-13.357 -17.56 -13.357 -18.279 QT
-13.357 -19.294 -12.786 -20.287 QT
-12.216 -21.279 -11.278 -21.904 QT
-10.341 -22.529 -9.31 -22.529 QT
-8.638 -22.529 -8.099 -22.208 QT
-7.56 -21.888 -7.56 -21.247 QT
-7.56 -20.826 -7.802 -20.537 QT
-8.044 -20.247 -8.435 -20.247 QT
-8.685 -20.247 -8.849 -20.404 QT
-9.013 -20.56 -9.013 -20.794 QT
-9.013 -21.154 -8.755 -21.404 QT
-8.497 -21.654 -8.153 -21.654 QT
-8.122 -21.654 L
-8.31 -21.904 -8.638 -22.021 QT
-8.966 -22.138 -9.325 -22.138 QT
-10.2 -22.138 -10.864 -21.388 QT
-11.528 -20.638 -11.857 -19.599 QT
-12.185 -18.56 -12.185 -17.685 QT
cp
f
GR
GS
[0 -1 1 0 51 468.99991] CT
0 0.447 0.741 RC
N
7.976 -2.467 M
6.741 -3.436 5.858 -4.686 QT
4.976 -5.936 4.413 -7.35 QT
3.851 -8.764 3.569 -10.311 QT
3.288 -11.858 3.288 -13.42 QT
3.288 -14.998 3.569 -16.545 QT
3.851 -18.092 4.421 -19.522 QT
4.991 -20.951 5.882 -22.194 QT
6.772 -23.436 7.976 -24.373 QT
7.976 -24.42 8.069 -24.42 QT
8.288 -24.42 L
8.351 -24.42 8.405 -24.358 QT
8.46 -24.295 8.46 -24.233 QT
8.46 -24.123 8.413 -24.092 QT
7.335 -23.029 6.624 -21.826 QT
5.913 -20.623 5.476 -19.264 QT
5.038 -17.904 4.843 -16.451 QT
4.647 -14.998 4.647 -13.42 QT
4.647 -6.42 8.382 -2.795 QT
8.46 -2.733 8.46 -2.608 QT
8.46 -2.561 8.397 -2.49 QT
8.335 -2.42 8.288 -2.42 QT
8.069 -2.42 L
7.976 -2.42 7.976 -2.467 QT
cp
f
GR
GS
[0 -1 1 0 51 468.99991] CT
0 0.447 0.741 RC
N
13.453 -16.747 M
12.672 -16.747 12.008 -17.138 QT
11.344 -17.529 10.945 -18.208 QT
10.547 -18.888 10.547 -19.654 QT
10.547 -20.419 10.945 -21.099 QT
11.344 -21.779 12.008 -22.169 QT
12.672 -22.56 13.453 -22.56 QT
14.234 -22.56 14.898 -22.162 QT
15.562 -21.763 15.953 -21.091 QT
16.344 -20.419 16.344 -19.654 QT
16.344 -18.888 15.953 -18.216 QT
15.562 -17.544 14.898 -17.146 QT
14.234 -16.747 13.453 -16.747 QT
cp
13.453 -17.341 M
14.391 -17.341 15.07 -18.029 QT
15.75 -18.716 15.75 -19.654 QT
15.75 -20.247 15.437 -20.787 QT
15.125 -21.326 14.594 -21.646 QT
14.062 -21.966 13.453 -21.966 QT
12.984 -21.966 12.57 -21.787 QT
12.156 -21.607 11.828 -21.279 QT
11.5 -20.951 11.32 -20.537 QT
11.141 -20.122 11.141 -19.654 QT
11.141 -18.716 11.82 -18.029 QT
12.5 -17.341 13.453 -17.341 QT
cp
f
GR
GS
[0 -1 1 0 51 468.99991] CT
0 0.447 0.741 RC
N
19.925 -2.42 M
19.737 -2.42 19.737 -2.608 QT
19.737 -2.717 19.784 -2.748 QT
23.534 -6.42 23.534 -13.42 QT
23.534 -20.42 19.831 -24.045 QT
19.737 -24.092 19.737 -24.233 QT
19.737 -24.295 19.8 -24.358 QT
19.862 -24.42 19.925 -24.42 QT
20.144 -24.42 L
20.206 -24.42 20.237 -24.373 QT
21.816 -23.139 22.87 -21.35 QT
23.925 -19.561 24.417 -17.545 QT
24.909 -15.529 24.909 -13.42 QT
24.909 -11.858 24.644 -10.35 QT
24.378 -8.842 23.808 -7.373 QT
23.237 -5.904 22.355 -4.67 QT
21.472 -3.436 20.237 -2.467 QT
20.206 -2.42 20.144 -2.42 QT
19.925 -2.42 L
cp
f
GR
GS
0.851 0.325 0.098 RC
2 setlinecap
1 LJ
0.5 LW
N
625 578 M
625 360 L
S
GR
GS
0.851 0.325 0.098 RC
2 setlinecap
1 LJ
0.5 LW
N
625 578 M
619.65 578 L
S
GR
GS
0.851 0.325 0.098 RC
2 setlinecap
1 LJ
0.5 LW
N
625 517.444 M
619.65 517.444 L
S
GR
GS
0.851 0.325 0.098 RC
2 setlinecap
1 LJ
0.5 LW
N
625 456.889 M
619.65 456.889 L
S
GR
GS
0.851 0.325 0.098 RC
2 setlinecap
1 LJ
0.5 LW
N
625 396.333 M
619.65 396.333 L
S
GR
GS
[1 0 0 1 631 578] CT
0.851 0.325 0.098 RC
/Times-Roman 20 F
GS
[1 0 0 1 0 0] CT
0 6.5 moveto 
1 -1 scale
(0) t 
GR
GR
GS
[1 0 0 1 631 517.44446] CT
0.851 0.325 0.098 RC
/Times-Roman 20 F
GS
[1 0 0 1 0 0] CT
0 6.5 moveto 
1 -1 scale
(100) t 
GR
GR
GS
[1 0 0 1 631 456.88889] CT
0.851 0.325 0.098 RC
/Times-Roman 20 F
GS
[1 0 0 1 0 0] CT
0 6.5 moveto 
1 -1 scale
(200) t 
GR
GR
GS
[1 0 0 1 631 396.33334] CT
0.851 0.325 0.098 RC
/Times-Roman 20 F
GS
[1 0 0 1 0 0] CT
0 6.5 moveto 
1 -1 scale
(300) t 
GR
GR
GS
[0 -1 1 0 664 468.99991] CT
0.851 0.325 0.098 RC
N
-23.046 22.761 M
-22.062 18.792 L
-23.171 18.792 -24.14 18.269 QT
-25.109 17.746 -25.695 16.816 QT
-26.28 15.886 -26.28 14.777 QT
-26.28 13.589 -25.687 12.503 QT
-25.093 11.417 -24.07 10.535 QT
-23.046 9.652 -21.866 9.175 QT
-20.687 8.699 -19.53 8.699 QT
-18.202 3.339 L
-18.155 3.214 -18.03 3.214 QT
-17.765 3.214 L
-17.671 3.214 -17.616 3.292 QT
-17.562 3.371 -17.562 3.433 QT
-18.89 8.699 L
-18.062 8.699 -17.288 8.996 QT
-16.515 9.292 -15.921 9.839 QT
-15.327 10.386 -14.991 11.121 QT
-14.655 11.855 -14.655 12.683 QT
-14.655 13.886 -15.249 14.972 QT
-15.843 16.058 -16.843 16.925 QT
-17.843 17.792 -19.07 18.292 QT
-20.296 18.792 -21.421 18.792 QT
-22.421 22.871 L
-22.468 22.996 -22.609 22.996 QT
-22.859 22.996 L
-22.952 22.996 -22.999 22.91 QT
-23.046 22.824 -23.046 22.761 QT
cp
-21.921 18.214 M
-19.671 9.261 L
-20.234 9.261 -20.843 9.488 QT
-21.452 9.714 -21.999 10.058 QT
-22.546 10.402 -22.984 10.839 QT
-23.515 11.386 -23.929 12.113 QT
-24.343 12.839 -24.546 13.652 QT
-24.749 14.464 -24.749 15.246 QT
-24.749 16.074 -24.398 16.753 QT
-24.046 17.433 -23.398 17.824 QT
-22.749 18.214 -21.921 18.214 QT
cp
-21.265 18.214 M
-20.437 18.214 -19.499 17.738 QT
-18.562 17.261 -17.968 16.636 QT
-17.14 15.808 -16.663 14.628 QT
-16.187 13.449 -16.187 12.23 QT
-16.187 11.417 -16.538 10.73 QT
-16.89 10.042 -17.538 9.652 QT
-18.187 9.261 -19.015 9.261 QT
-21.265 18.214 L
cp
f
GR
GS
[0 -1 1 0 664 468.99991] CT
0.851 0.325 0.098 RC
N
-11.188 10.668 M
-11.907 10.668 -12.446 10.293 QT
-12.985 9.918 -13.266 9.285 QT
-13.547 8.653 -13.547 7.949 QT
-13.547 6.871 -13.008 5.934 QT
-12.469 4.996 -11.547 4.434 QT
-10.625 3.871 -9.563 3.871 QT
-8.922 3.871 -8.446 4.199 QT
-7.969 4.528 -7.969 5.153 QT
-7.969 6.028 -8.657 6.442 QT
-9.344 6.856 -10.203 6.957 QT
-11.063 7.059 -12.11 7.059 QT
-12.157 7.059 L
-12.407 7.949 -12.407 8.59 QT
-12.407 9.262 -12.094 9.762 QT
-11.782 10.262 -11.157 10.262 QT
-10.266 10.262 -9.438 9.856 QT
-8.61 9.449 -8.094 8.731 QT
-8.047 8.684 -7.985 8.684 QT
-7.907 8.684 -7.828 8.77 QT
-7.75 8.856 -7.75 8.918 QT
-7.75 8.981 -7.782 9.012 QT
-8.328 9.778 -9.258 10.223 QT
-10.188 10.668 -11.188 10.668 QT
cp
-12.078 6.668 M
-11.203 6.668 -10.461 6.59 QT
-9.719 6.512 -9.117 6.184 QT
-8.516 5.856 -8.516 5.168 QT
-8.516 4.887 -8.672 4.684 QT
-8.828 4.481 -9.071 4.371 QT
-9.313 4.262 -9.578 4.262 QT
-10.219 4.262 -10.727 4.606 QT
-11.235 4.949 -11.563 5.496 QT
-11.891 6.043 -12.078 6.668 QT
cp
f
GR
GS
[0 -1 1 0 664 468.99991] CT
0.851 0.325 0.098 RC
N
8.229 23.933 M
6.994 22.964 6.112 21.714 QT
5.229 20.464 4.666 19.05 QT
4.104 17.636 3.822 16.089 QT
3.541 14.542 3.541 12.98 QT
3.541 11.402 3.822 9.855 QT
4.104 8.308 4.674 6.878 QT
5.244 5.449 6.135 4.206 QT
7.026 2.964 8.229 2.027 QT
8.229 1.98 8.322 1.98 QT
8.541 1.98 L
8.604 1.98 8.658 2.042 QT
8.713 2.105 8.713 2.167 QT
8.713 2.277 8.666 2.308 QT
7.588 3.371 6.877 4.574 QT
6.166 5.777 5.729 7.136 QT
5.291 8.496 5.096 9.949 QT
4.901 11.402 4.901 12.98 QT
4.901 19.98 8.635 23.605 QT
8.713 23.667 8.713 23.792 QT
8.713 23.839 8.651 23.91 QT
8.588 23.98 8.541 23.98 QT
8.322 23.98 L
8.229 23.98 8.229 23.933 QT
cp
f
GR
GS
[0 -1 1 0 664 468.99991] CT
0.851 0.325 0.098 RC
N
13.706 9.653 M
12.925 9.653 12.261 9.262 QT
11.597 8.871 11.198 8.192 QT
10.8 7.512 10.8 6.746 QT
10.8 5.981 11.198 5.301 QT
11.597 4.621 12.261 4.231 QT
12.925 3.84 13.706 3.84 QT
14.487 3.84 15.151 4.238 QT
15.816 4.637 16.206 5.309 QT
16.597 5.981 16.597 6.746 QT
16.597 7.512 16.206 8.184 QT
15.816 8.856 15.151 9.254 QT
14.487 9.653 13.706 9.653 QT
cp
13.706 9.059 M
14.644 9.059 15.323 8.371 QT
16.003 7.684 16.003 6.746 QT
16.003 6.153 15.691 5.613 QT
15.378 5.074 14.847 4.754 QT
14.316 4.434 13.706 4.434 QT
13.237 4.434 12.823 4.613 QT
12.409 4.793 12.081 5.121 QT
11.753 5.449 11.573 5.863 QT
11.394 6.278 11.394 6.746 QT
11.394 7.684 12.073 8.371 QT
12.753 9.059 13.706 9.059 QT
cp
f
GR
GS
[0 -1 1 0 664 468.99991] CT
0.851 0.325 0.098 RC
N
20.178 23.98 M
19.991 23.98 19.991 23.792 QT
19.991 23.683 20.037 23.652 QT
23.787 19.98 23.787 12.98 QT
23.787 5.98 20.084 2.355 QT
19.991 2.308 19.991 2.167 QT
19.991 2.105 20.053 2.042 QT
20.116 1.98 20.178 1.98 QT
20.397 1.98 L
20.459 1.98 20.491 2.027 QT
22.069 3.261 23.123 5.05 QT
24.178 6.839 24.67 8.855 QT
25.162 10.871 25.162 12.98 QT
25.162 14.542 24.897 16.05 QT
24.631 17.558 24.061 19.027 QT
23.491 20.496 22.608 21.73 QT
21.725 22.964 20.491 23.933 QT
20.459 23.98 20.397 23.98 QT
20.178 23.98 L
cp
f
GR
GS
0 0.447 0.741 RC
1 LJ
0.5 LW
N
90 578 M
625 578 L
S
GR
GS
[1 0 0 1 90 578] CT
0 0.447 0.741 RC
10.0 ML
2 LW
N
3 0 M
3 -1.657 1.657 -3 0 -3 C
-1.657 -3 -3 -1.657 -3 0 C
-3 1.657 -1.657 3 0 3 C
1.657 3 3 1.657 3 0 C
cp
S
GR
GS
[1 0 0 1 213.06743 382.87842] CT
0 0.447 0.741 RC
10.0 ML
2 LW
N
3 0 M
3 -1.657 1.657 -3 0 -3 C
-1.657 -3 -3 -1.657 -3 0 C
-3 1.657 -1.657 3 0 3 C
1.657 3 3 1.657 3 0 C
cp
S
GR
GS
[1 0 0 1 274.60114 452.52295] CT
0 0.447 0.741 RC
10.0 ML
2 LW
N
3 0 M
3 -1.657 1.657 -3 0 -3 C
-1.657 -3 -3 -1.657 -3 0 C
-3 1.657 -1.657 3 0 3 C
1.657 3 3 1.657 3 0 C
cp
S
GR
GS
[1 0 0 1 336.13486 507.58173] CT
0 0.447 0.741 RC
10.0 ML
2 LW
N
3 0 M
3 -1.657 1.657 -3 0 -3 C
-1.657 -3 -3 -1.657 -3 0 C
-3 1.657 -1.657 3 0 3 C
1.657 3 3 1.657 3 0 C
cp
S
GR
GS
[1 0 0 1 459.20227 425.90781] CT
0 0.447 0.741 RC
10.0 ML
2 LW
N
3 0 M
3 -1.657 1.657 -3 0 -3 C
-1.657 -3 -3 -1.657 -3 0 C
-3 1.657 -1.657 3 0 3 C
1.657 3 3 1.657 3 0 C
cp
S
GR
GS
[1 0 0 1 582.26971 546.69049] CT
0 0.447 0.741 RC
10.0 ML
2 LW
N
3 0 M
3 -1.657 1.657 -3 0 -3 C
-1.657 -3 -3 -1.657 -3 0 C
-3 1.657 -1.657 3 0 3 C
1.657 3 3 1.657 3 0 C
cp
S
GR
GS
[1 0 0 1 153.86478 423.4791] CT
0 0.447 0.741 RC
10.0 ML
2 LW
N
3 0 M
3 -1.657 1.657 -3 0 -3 C
-1.657 -3 -3 -1.657 -3 0 C
-3 1.657 -1.657 3 0 3 C
1.657 3 3 1.657 3 0 C
cp
S
GR
GS
[1 0 0 1 399.99963 473.07986] CT
0 0.447 0.741 RC
10.0 ML
2 LW
N
3 0 M
3 -1.657 1.657 -3 0 -3 C
-1.657 -3 -3 -1.657 -3 0 C
-3 1.657 -1.657 3 0 3 C
1.657 3 3 1.657 3 0 C
cp
S
GR
GS
[1 0 0 1 523.06708 411.05801] CT
0 0.447 0.741 RC
10.0 ML
2 LW
N
3 0 M
3 -1.657 1.657 -3 0 -3 C
-1.657 -3 -3 -1.657 -3 0 C
-3 1.657 -1.657 3 0 3 C
1.657 3 3 1.657 3 0 C
cp
S
GR
GS
N
90 360 M
626 360 L
626 579 L
90 579 L
90 360 L
cp
clip
0 0.447 0.741 RC
1 LJ
2 LW
N
90 578 M
90 578 L
S
GR
GS
N
90 360 M
626 360 L
626 579 L
90 579 L
90 360 L
cp
clip
0 0.447 0.741 RC
1 LJ
2 LW
N
213.067 578 M
213.067 382.878 L
S
GR
GS
N
90 360 M
626 360 L
626 579 L
90 579 L
90 360 L
cp
clip
0 0.447 0.741 RC
1 LJ
2 LW
N
274.601 578 M
274.601 452.523 L
S
GR
GS
N
90 360 M
626 360 L
626 579 L
90 579 L
90 360 L
cp
clip
0 0.447 0.741 RC
1 LJ
2 LW
N
336.135 578 M
336.135 507.582 L
S
GR
GS
N
90 360 M
626 360 L
626 579 L
90 579 L
90 360 L
cp
clip
0 0.447 0.741 RC
1 LJ
2 LW
N
459.202 578 M
459.202 425.908 L
S
GR
GS
N
90 360 M
626 360 L
626 579 L
90 579 L
90 360 L
cp
clip
0 0.447 0.741 RC
1 LJ
2 LW
N
582.27 578 M
582.27 546.69 L
S
GR
GS
N
90 360 M
626 360 L
626 579 L
90 579 L
90 360 L
cp
clip
0 0.447 0.741 RC
1 LJ
2 LW
N
153.865 578 M
153.865 423.479 L
S
GR
GS
N
90 360 M
626 360 L
626 579 L
90 579 L
90 360 L
cp
clip
0 0.447 0.741 RC
1 LJ
2 LW
N
400 578 M
400 473.08 L
S
GR
GS
N
90 360 M
626 360 L
626 579 L
90 579 L
90 360 L
cp
clip
0 0.447 0.741 RC
1 LJ
2 LW
N
523.067 578 M
523.067 411.058 L
S
GR
GS
0.851 0.325 0.098 RC
1 LJ
0.5 LW
N
90 578 M
625 578 L
S
GR
GS
[1 0 0 1 90 578] CT
0.851 0.325 0.098 RC
10.0 ML
N
3 0 M
3 -1.657 1.657 -3 0 -3 C
-1.657 -3 -3 -1.657 -3 0 C
-3 1.657 -1.657 3 0 3 C
1.657 3 3 1.657 3 0 C
cp
S
GR
GS
[1 0 0 1 213.06743 399.5043] CT
0.851 0.325 0.098 RC
10.0 ML
N
3 0 M
3 -1.657 1.657 -3 0 -3 C
-1.657 -3 -3 -1.657 -3 0 C
-3 1.657 -1.657 3 0 3 C
1.657 3 3 1.657 3 0 C
cp
S
GR
GS
[1 0 0 1 274.60114 546.44067] CT
0.851 0.325 0.098 RC
10.0 ML
N
3 0 M
3 -1.657 1.657 -3 0 -3 C
-1.657 -3 -3 -1.657 -3 0 C
-3 1.657 -1.657 3 0 3 C
1.657 3 3 1.657 3 0 C
cp
S
GR
GS
[1 0 0 1 336.13486 486.00787] CT
0.851 0.325 0.098 RC
10.0 ML
N
3 0 M
3 -1.657 1.657 -3 0 -3 C
-1.657 -3 -3 -1.657 -3 0 C
-3 1.657 -1.657 3 0 3 C
1.657 3 3 1.657 3 0 C
cp
S
GR
GS
[1 0 0 1 459.20227 415.62363] CT
0.851 0.325 0.098 RC
10.0 ML
N
3 0 M
3 -1.657 1.657 -3 0 -3 C
-1.657 -3 -3 -1.657 -3 0 C
-3 1.657 -1.657 3 0 3 C
1.657 3 3 1.657 3 0 C
cp
S
GR
GS
[1 0 0 1 582.26971 577.84619] CT
0.851 0.325 0.098 RC
10.0 ML
N
3 0 M
3 -1.657 1.657 -3 0 -3 C
-1.657 -3 -3 -1.657 -3 0 C
-3 1.657 -1.657 3 0 3 C
1.657 3 3 1.657 3 0 C
cp
S
GR
GS
[1 0 0 1 153.86478 501.94678] CT
0.851 0.325 0.098 RC
10.0 ML
N
3 0 M
3 -1.657 1.657 -3 0 -3 C
-1.657 -3 -3 -1.657 -3 0 C
-3 1.657 -1.657 3 0 3 C
1.657 3 3 1.657 3 0 C
cp
S
GR
GS
[1 0 0 1 399.99963 375.88028] CT
0.851 0.325 0.098 RC
10.0 ML
N
3 0 M
3 -1.657 1.657 -3 0 -3 C
-1.657 -3 -3 -1.657 -3 0 C
-3 1.657 -1.657 3 0 3 C
1.657 3 3 1.657 3 0 C
cp
S
GR
GS
[1 0 0 1 523.06708 364.69781] CT
0.851 0.325 0.098 RC
10.0 ML
N
3 0 M
3 -1.657 1.657 -3 0 -3 C
-1.657 -3 -3 -1.657 -3 0 C
-3 1.657 -1.657 3 0 3 C
1.657 3 3 1.657 3 0 C
cp
S
GR
GS
N
90 360 M
626 360 L
626 579 L
90 579 L
90 360 L
cp
clip
0.851 0.325 0.098 RC
1 LJ
N
90 578 M
90 578 L
S
GR
GS
N
90 360 M
626 360 L
626 579 L
90 579 L
90 360 L
cp
clip
0.851 0.325 0.098 RC
1 LJ
N
213.067 578 M
213.067 399.504 L
S
GR
GS
N
90 360 M
626 360 L
626 579 L
90 579 L
90 360 L
cp
clip
0.851 0.325 0.098 RC
1 LJ
N
274.601 578 M
274.601 546.441 L
S
GR
GS
N
90 360 M
626 360 L
626 579 L
90 579 L
90 360 L
cp
clip
0.851 0.325 0.098 RC
1 LJ
N
336.135 578 M
336.135 486.008 L
S
GR
GS
N
90 360 M
626 360 L
626 579 L
90 579 L
90 360 L
cp
clip
0.851 0.325 0.098 RC
1 LJ
N
459.202 578 M
459.202 415.624 L
S
GR
GS
N
90 360 M
626 360 L
626 579 L
90 579 L
90 360 L
cp
clip
0.851 0.325 0.098 RC
1 LJ
N
582.27 578 M
582.27 577.846 L
S
GR
GS
N
90 360 M
626 360 L
626 579 L
90 579 L
90 360 L
cp
clip
0.851 0.325 0.098 RC
1 LJ
N
153.865 578 M
153.865 501.947 L
S
GR
GS
N
90 360 M
626 360 L
626 579 L
90 579 L
90 360 L
cp
clip
0.851 0.325 0.098 RC
1 LJ
N
400 578 M
400 375.88 L
S
GR
GS
N
90 360 M
626 360 L
626 579 L
90 579 L
90 360 L
cp
clip
0.851 0.325 0.098 RC
1 LJ
N
523.067 578 M
523.067 364.698 L
S
GR
GS
0.149 GC
2 setlinecap
1 LJ
0.5 LW
N
90 578 M
625 578 L
S
GR
GS
0.149 GC
2 setlinecap
1 LJ
0.5 LW
N
90 578 M
90 572.65 L
S
GR
GS
0.149 GC
2 setlinecap
1 LJ
0.5 LW
N
166.429 578 M
166.429 572.65 L
S
GR
GS
0.149 GC
2 setlinecap
1 LJ
0.5 LW
N
242.857 578 M
242.857 572.65 L
S
GR
GS
0.149 GC
2 setlinecap
1 LJ
0.5 LW
N
319.286 578 M
319.286 572.65 L
S
GR
GS
0.149 GC
2 setlinecap
1 LJ
0.5 LW
N
395.714 578 M
395.714 572.65 L
S
GR
GS
0.149 GC
2 setlinecap
1 LJ
0.5 LW
N
472.143 578 M
472.143 572.65 L
S
GR
GS
0.149 GC
2 setlinecap
1 LJ
0.5 LW
N
548.571 578 M
548.571 572.65 L
S
GR
GS
0.149 GC
2 setlinecap
1 LJ
0.5 LW
N
625 578 M
625 572.65 L
S
GR
GS
[1 0 0 1 90 584] CT
0.149 GC
/Times-Roman 20 F
GS
[1 0 0 1 0 0] CT
-5 18 moveto 
1 -1 scale
(0) t 
GR
GR
GS
[1 0 0 1 166.42857 584] CT
0.149 GC
/Times-Roman 20 F
GS
[1 0 0 1 0 0] CT
-17.5 18 moveto 
1 -1 scale
(0.05) t 
GR
GR
GS
[1 0 0 1 242.85715 584] CT
0.149 GC
/Times-Roman 20 F
GS
[1 0 0 1 0 0] CT
-12.5 18 moveto 
1 -1 scale
(0.1) t 
GR
GR
GS
[1 0 0 1 319.28574 584] CT
0.149 GC
/Times-Roman 20 F
GS
[1 0 0 1 0 0] CT
-17.5 18 moveto 
1 -1 scale
(0.15) t 
GR
GR
GS
[1 0 0 1 395.71429 584] CT
0.149 GC
/Times-Roman 20 F
GS
[1 0 0 1 0 0] CT
-12.5 18 moveto 
1 -1 scale
(0.2) t 
GR
GR
GS
[1 0 0 1 472.14285 584] CT
0.149 GC
/Times-Roman 20 F
GS
[1 0 0 1 0 0] CT
-17.5 18 moveto 
1 -1 scale
(0.25) t 
GR
GR
GS
[1 0 0 1 548.57147 584] CT
0.149 GC
/Times-Roman 20 F
GS
[1 0 0 1 0 0] CT
-12.5 18 moveto 
1 -1 scale
(0.3) t 
GR
GR
GS
[1 0 0 1 625 584] CT
0.149 GC
/Times-Roman 20 F
GS
[1 0 0 1 0 0] CT
-17.5 18 moveto 
1 -1 scale
(0.35) t 
GR
GR
GS
[1 0 0 1 286 635] CT
0.149 GC
/Times-Roman 22 F
GS
[1 0 0 1 0 0] CT
0 0 moveto 
1 -1 scale
(frequency \(hr) t 
GR
GR
GS
[1 0 0 1 406 624] CT
0.149 GC
/Times-Roman 17.6 F
GS
[1 0 0 1 0 0] CT
0 0 moveto 
1 -1 scale
(-1) t 
GR
GR
GS
[1 0 0 1 421 635] CT
0.149 GC
/Times-Roman 22 F
GS
[1 0 0 1 0 0] CT
0 0 moveto 
1 -1 scale
(\)) t 
GR
GR
GS
0.149 GC
2 setlinecap
1 LJ
0.5 LW
N
90 360 M
625 360 L
S
GR
GS
0.149 GC
2 setlinecap
1 LJ
0.5 LW
N
90 360 M
90 365.35 L
S
GR
GS
0.149 GC
2 setlinecap
1 LJ
0.5 LW
N
153.865 360 M
153.865 365.35 L
S
GR
GS
0.149 GC
2 setlinecap
1 LJ
0.5 LW
N
213.067 360 M
213.067 365.35 L
S
GR
GS
0.149 GC
2 setlinecap
1 LJ
0.5 LW
N
274.601 360 M
274.601 365.35 L
S
GR
GS
0.149 GC
2 setlinecap
1 LJ
0.5 LW
N
336.135 360 M
336.135 365.35 L
S
GR
GS
0.149 GC
2 setlinecap
1 LJ
0.5 LW
N
400 360 M
400 365.35 L
S
GR
GS
0.149 GC
2 setlinecap
1 LJ
0.5 LW
N
459.202 360 M
459.202 365.35 L
S
GR
GS
0.149 GC
2 setlinecap
1 LJ
0.5 LW
N
523.067 360 M
523.067 365.35 L
S
GR
GS
0.149 GC
2 setlinecap
1 LJ
0.5 LW
N
582.27 360 M
582.27 365.35 L
S
GR
GS
[1 0 0 1 90 354] CT
0.149 GC
/Times-Roman 20 F
GS
[1 0 0 1 0 0] CT
-23 -5 moveto 
1 -1 scale
(Mean) t 
GR
GR
GS
[1 0 0 1 153.86478 354] CT
0.149 GC
/Times-Roman 20 F
GS
[1 0 0 1 0 0] CT
-12.5 -5 moveto 
1 -1 scale
(K1) t 
GR
GR
GS
[1 0 0 1 213.06743 354] CT
0.149 GC
/Times-Roman 20 F
GS
[1 0 0 1 0 0] CT
-14 -5 moveto 
1 -1 scale
(M2) t 
GR
GR
GS
[1 0 0 1 274.60114 354] CT
0.149 GC
/Times-Roman 20 F
GS
[1 0 0 1 0 0] CT
-14 -5 moveto 
1 -1 scale
(M3) t 
GR
GR
GS
[1 0 0 1 336.13486 354] CT
0.149 GC
/Times-Roman 20 F
GS
[1 0 0 1 0 0] CT
-14 -5 moveto 
1 -1 scale
(M4) t 
GR
GR
GS
[1 0 0 1 399.99963 354] CT
0.149 GC
/Times-Roman 20 F
GS
[1 0 0 1 0 0] CT
-26.5 -5 moveto 
1 -1 scale
(2MK5) t 
GR
GR
GS
[1 0 0 1 459.20227 354] CT
0.149 GC
/Times-Roman 20 F
GS
[1 0 0 1 0 0] CT
-14 -5 moveto 
1 -1 scale
(M6) t 
GR
GR
GS
[1 0 0 1 523.06708 354] CT
0.149 GC
/Times-Roman 20 F
GS
[1 0 0 1 0 0] CT
-26.5 -5 moveto 
1 -1 scale
(3MK8) t 
GR
GR
GS
[1 0 0 1 582.26971 354] CT
0.149 GC
/Times-Roman 20 F
GS
[1 0 0 1 0 0] CT
-14 -5 moveto 
1 -1 scale
(M8) t 
GR
GR
GS
0.149 GC
2 setlinecap
1 LJ
0.5 LW
N
625 584 M
625 360 L
S
GR
%%Trailer
%%Pages: 1
%%EOF
