\relax 
\citation{van2017tidal}
\citation{olabarrieta2011wave}
\citation{dodet2013wave}
\citation{chen2015hydrodynamic}
\citation{lisa2016on}
\citation{hinrichs2018assessment}
\citation{yu2018hydraulic}
\select@language{english}
\@writefile{toc}{\select@language{english}}
\@writefile{lof}{\select@language{english}}
\@writefile{lot}{\select@language{english}}
\@writefile{toc}{\contentsline {section}{\numberline {1}Introduction}{1}}
\@writefile{lof}{\contentsline {figure}{\numberline {1}{\ignorespaces Selected aerial photos took by Dr. Charles Flagg over the Old Inlet breach.}}{2}}
\newlabel{Aerial}{{1}{2}}
\citation{soulsby1997dynamics}
\citation{keulegan1967tidal}
\citation{mehta1978inlet}
\citation{chen2015hydrodynamic}
\citation{dodet2013wave}
\citation{olabarrieta2011wave}
\citation{olabarrieta2014role}
\citation{longuet1960changes}
\citation{longuet1961changes}
\citation{te1959open}
\citation{van2017tidal}
\citation{yu2018hydraulic}
\citation{brouwer2007effects}
\@writefile{toc}{\contentsline {section}{\numberline {2}Background}{3}}
\newlabel{SVRformula}{{1}{3}}
\newlabel{Hydroeqn1}{{2}{3}}
\newlabel{Hydroeqn2}{{3}{3}}
\citation{boon1981basin}
\citation{fry1987tidal}
\citation{pingree_griffiths_1979}
\citation{yu2018hydraulic}
\citation{nielsen1992coastal}
\citation{hinrichs2018assessment}
\citation{yu2018hydraulic}
\citation{van1993tide}
\citation{pingree_griffiths_1979}
\newlabel{STesti}{{5}{4}}
\citation{boon1981basin}
\citation{hinrichs2018assessment}
\citation{van2017tidal}
\citation{hinrichs2018assessment}
\citation{hinrichs2018assessment}
\citation{soulsby1997dynamics}
\citation{dodet2013wave}
\citation{longuet1960changes}
\citation{longuet1961changes}
\newlabel{WS1}{{6}{5}}
\newlabel{WS2}{{7}{5}}
\@writefile{lof}{\contentsline {figure}{\numberline {2}{\ignorespaces The upper panel shows the harmonic spectrum of the $|U|$ and $\eta $ time series extracted from the FVCOM model at the Old Inlet Breach gorge; the lower panel shows the corresponding phase.}}{6}}
\newlabel{Spec}{{2}{6}}
\@writefile{lof}{\contentsline {figure}{\numberline {3}{\ignorespaces This schematic diagram shows the local wave-induced sediment transport $q_{w}$ versus the local current velocity profile $U$. The blue line shows the surface wave profile. $c$ is the wave phase speed, and the arrow above it shows its propagation direction.}}{7}}
\newlabel{Wave-Current}{{3}{7}}
\citation{dodet2013wave}
\@writefile{lof}{\contentsline {figure}{\numberline {4}{\ignorespaces This schematic diagram shows the local wave-induced sediment transport $q_{w}$ versus the local bathymetry. The blue line shows the surface wave profile. $c$ is the wave phase speed, and the arrow above it shows its propagation direction.}}{8}}
\newlabel{Wave-Bathymetry}{{4}{8}}
\@writefile{toc}{\contentsline {section}{\numberline {3}Objectives}{9}}
\@writefile{toc}{\contentsline {section}{\numberline {4}Hypothesis}{9}}
\@writefile{lof}{\contentsline {figure}{\numberline {5}{\ignorespaces The map of selected traces on from one survey as an example.}}{10}}
\newlabel{Tracemap}{{5}{10}}
\@writefile{toc}{\contentsline {section}{\numberline {5}Research Approach}{10}}
\@writefile{toc}{\contentsline {subsection}{\numberline {5.1}Field work}{10}}
\@writefile{toc}{\contentsline {subsubsection}{\numberline {5.1.1}Measuring local wave field}{10}}
\newlabel{DSo}{{8}{10}}
\citation{komen1996dynamics}
\@writefile{lof}{\contentsline {figure}{\numberline {6}{\ignorespaces The left panel gives the trend comparison of $f_{d}$ vs. depth, the right panel gives the trend comparison of $f_{d}$ vs. the direction cosine of the selected traces.}}{11}}
\newlabel{CR}{{6}{11}}
\newlabel{DSs}{{9}{11}}
\@writefile{toc}{\contentsline {subsubsection}{\numberline {5.1.2}Local wave measurement cruise}{11}}
\citation{chen2012unstructured}
\citation{booij1999third}
\citation{hinrichs2018assessment}
\@writefile{lof}{\contentsline {figure}{\numberline {7}{\ignorespaces The Map of planned current and wave measurement cruise. Red dots show the position scheduled for ADCP deployment. The green triangle shows the sediment sampling position.}}{12}}
\newlabel{Deploymap}{{7}{12}}
\citation{yu2018hydraulic}
\citation{hinrichs2018assessment}
\@writefile{toc}{\contentsline {subsection}{\numberline {5.2}Modeling}{13}}
\@writefile{toc}{\contentsline {subsubsection}{\numberline {5.2.1}Hydrodynamic Modeling}{13}}
\@writefile{toc}{\contentsline {subsubsection}{\numberline {5.2.2}Hydraulic Modeling}{13}}
\@writefile{toc}{\contentsline {subsection}{\numberline {5.3}Hypothesis Testing}{14}}
\@writefile{toc}{\contentsline {section}{\numberline {6}Appendix}{14}}
\@writefile{toc}{\contentsline {subsection}{\numberline {6.1}The energy correction coefficient $m$}{14}}
\newlabel{Corisec}{{6.1}{14}}
\citation{coriolis1836etablissement}
\citation{li1991correction}
\bibdata{Citation2.bib}
\bibcite{booij1999third}{1}
\bibcite{boon1981basin}{2}
\bibcite{brouwer2007effects}{3}
\bibcite{chen2012unstructured}{4}
\@writefile{toc}{\contentsline {subsection}{\numberline {6.2}M2-M4 interaction}{15}}
\newlabel{M2M4intersec}{{6.2}{15}}
\@writefile{lof}{\contentsline {figure}{\numberline {8}{\ignorespaces These panels show the configurations of each characteristic $\delta \phi _{M2/M4}^{C}$.}}{16}}
\newlabel{M2M4inter}{{8}{16}}
\bibcite{chen2015hydrodynamic}{5}
\bibcite{coriolis1836etablissement}{6}
\bibcite{dodet2013wave}{7}
\bibcite{lisa2016on}{8}
\bibcite{fry1987tidal}{9}
\bibcite{hinrichs2018assessment}{10}
\bibcite{keulegan1967tidal}{11}
\bibcite{komen1996dynamics}{12}
\bibcite{li1991correction}{13}
\bibcite{longuet1960changes}{14}
\bibcite{longuet1961changes}{15}
\bibcite{mehta1978inlet}{16}
\bibcite{nielsen1992coastal}{17}
\bibcite{olabarrieta2014role}{18}
\bibcite{olabarrieta2011wave}{19}
\bibcite{pingree_griffiths_1979}{20}
\bibcite{soulsby1997dynamics}{21}
\bibcite{te1959open}{22}
\bibcite{van1993tide}{23}
\bibcite{van2017tidal}{24}
\bibcite{yu2018hydraulic}{25}
\bibstyle{plain}
